rank,stars,name,town,Reward - Total,Reward - Comp,Reward - Loyalty,Reward - Deducted
1,831289970,NachoG | TSM,My Town,40000,40000,0,0
2,794806195,zbi3 NLO,My Town,30000,30000,0,0
3,715246380,Teddy I NLO,Teddy I NLO,25000,25000,0,0
4,713128805,paramin | KAG,My Town,21000,21000,0,0
5,674010425,SugrrPie | NLO,My Town,18000,18000,0,0
6,601677820,Zeebor | TSM,My Town,16000,16000,0,0
7,576444630,Amarthil,My Town,14500,14500,0,0
8,561984780,ntx20 [GEM],My Town,13000,13000,0,0
9,560371560,Billie I TSM ,My Town,12500,12500,0,0
10,538441825,xG,My Town,12000,12000,0,0
11,491724890,D84 | NLO,D84 | NLO,11000,11000,0,0
12,487115260,O-Town [DUB],O-Town [DUB],11000,11000,0,0
13,477909710,*Pixie,*Pixie,11000,11000,0,0
14,416823905,PlanetBob,My Town,11000,11000,0,0
15,403317155,RAH | NLO,RAHville | NLO,11000,11000,0,0
16,403284650,DubstepRod,DubstepRod [DUB],11000,11000,0,0
17,400776025,Coordinator,Coordinator | BTB,11000,11000,0,0
18,390580290,Mugiwara | NLO,Monky D Luffy,11000,11000,0,0
19,380188895,LIMCOIN1[GEM],LIMCOIN1[GEM],11000,11000,0,0
20,369667330,Poison | NLO,My Town,11000,11000,0,0
21,367059390,bearro,My Town,11000,11000,0,0
22,359771060,duFi | NLO,My Town,11000,11000,0,0
23,347907860,Hello World BTB,My Town,11000,11000,0,0
24,347164790,FranceTSD [GEM],My Town,11000,11000,0,0
25,345583605,Homeboy431 [GEM],My Town,11000,11000,0,0
26,339650170,Zerberfert[GEM],Zerberfert[GEM],7000,7000,0,0
27,334370600,Smoogie  †TSM†,My Town,7000,7000,0,0
28,318273430,Pwnisher,My Town,7000,7000,0,0
29,308110325,TyroneCPA l NLO,My Town,7000,7000,0,0
30,301092195,skibob20,My Town,7000,7000,0,0
31,290732425,Rimizak,My Town,7000,7000,0,0
32,288047880,MixedBagONutz,My Town,7000,7000,0,0
33,287192820,Zyrhen | NLO,.,7000,7000,0,0
34,281561865,Jedy,My Town,7000,7000,0,0
35,278256825,No Free Lunch,No Free Lunch 'TSM',7000,7000,0,0
36,273743925,Magic | BTB,My Town,7000,7000,0,0
37,269588620,BMW!,Zzz,7000,7000,0,0
38,268031030,MR P,MR P,7000,7000,0,0
39,263610360,TANTRUM[GEM],74N72UM[GEM],7000,7000,0,0
40,259619400,Anderain [GEM],Anderain [GEM],7000,7000,0,0
41,258477960,L0nely Island +TSM+,My Town,7000,7000,0,0
42,256177910,parasshot [GEM],My Town,7000,7000,0,0
43,253561260,xWARtown | NLO,My Town,7000,7000,0,0
44,248287650,CrazyTown | NLO,My Town,7000,7000,0,0
45,244704320,Jamin156,My Town,7000,7000,0,0
46,240715820,Guillermoville,Guillermoville,7000,7000,0,0
47,225832255,Josey [DUB],My Town,7000,7000,0,0
48,222312420,Lexell | NLO,My Town,7000,7000,0,0
49,221532580,NOM | TSM,My Town,7000,7000,0,0
50,221305500,Lazy Lumberjack,Lazy Lumberjack,7000,7000,0,0
51,211388680,Madness | NLO,My Town,3500,3500,0,0
52,210301110,Sgt. Dornan,My Town,3500,3500,0,0
53,210179130,[MOB] Bazinga,My Town,3500,3500,0,0
54,209182030,Coffeebean[GEM],My Town,3500,3500,0,0
55,208648910,Remaaz,My Town,3500,3500,0,0
56,207128110,ikelobana,My Town,3500,3500,0,0
57,206249280,Goejung,My Town,3500,3500,0,0
58,205525925,Coinman ,Jewelry Set,3500,3500,0,0
59,205440030,Dru PH,My Town,3500,3500,0,0
60,204398290,mostewasa,My Town,3500,3500,0,0
61,204197790,Buayjung,My Town,3500,3500,0,0
62,204116930,Oizys | NLO,Oizys | NLO,3500,3500,0,0
63,202145800,Giftchie[GEM],My Town,3500,3500,0,0
64,199240740,Huge,My Town,3500,3500,0,0
65,199239530,Quixotic,,3500,3500,0,0
66,199095370,SandK!ng | NLO,My Town,3500,3500,0,0
67,198294165,Temujin [GEM],My Town,3500,3500,0,0
68,198260150,PuYn [GEM],My Town,3500,3500,0,0
69,198105920,SandQueen | NLO,My Town,3500,3500,0,0
70,196273100,JACK.CM | THC,JACK.CM | THC,3500,3500,0,0
71,194159090,kertedawe,My Town,3500,3500,0,0
72,193019070,LVPostman TSM,My Town,3500,3500,0,0
73,192512370,dr.hegi,My Town,3500,3500,0,0
74,188318740,i Dont Like Jewelry meta,My Town,3500,3500,0,0
75,187191740,Nice)))) |NLO,My Town,3500,3500,0,0
76,185194760,MaDukery NLO,My Town,3500,3500,0,0
77,184084780,MUSAKG,My Town,3500,3500,0,0
78,183116550,DnGL,My Town,3500,3500,0,0
79,182251350,Mois,My Town,3500,3500,0,0
80,182154460,66 wei,My Town,3500,3500,0,0
81,182062310,SchmiddoHH,My Town,3500,3500,0,0
82,181330770,Yui888 [GEM],My Town,3500,3500,0,0
83,178160880,Bang Iyan,Bang Iyan,3500,3500,0,0
84,177208430,mad0me[GEM],My Town,3500,3500,0,0
85,176486390,Tickles | BTB,TruckTonka,3500,3500,0,0
86,176256770,Hurps,My Town,3500,3500,0,0
87,176207250,Grem_Lin | NLO,My Town,3500,3500,0,0
88,175194220,townstarplayer3,My Town,3500,3500,0,0
89,174236050,merragued,My Town,3500,3500,0,0
90,173426050,DefiniteGJ,DefiniteGJ [DUB],3500,3500,0,0
91,173210990,A_Lonely_Joke,My Town,3500,3500,0,0
92,172497085,Spunkfire,My Town,3500,3500,0,0
93,171877500,쿠이신보,My Town,3500,3500,0,0
94,171411270,AVF2011 I NLO,My Town,3500,3500,0,0
95,171266990,MOKOCH/TKG,MOKOCH/TKG,3500,3500,0,0
96,171210730,TownStar[GEM],My Town,3500,3500,0,0
97,171160340,LordZel,My Town,3500,3500,0,0
98,170452800,Pure86,Hilversum,3500,3500,0,0
99,170413060,RassilonRaver,My Town,3500,3500,0,0
100,170156880,shurik,My Town,3500,3500,0,0
101,169390725,Cubby | HVN,My Town,1400,1400,0,0
102,169217470,Lildude3107,My Town,1400,1400,0,0
103,168542880,Townstar2L2T,My Town,1400,1400,0,0
104,168223090,JNC.,My Town,1400,1400,0,0
105,168221390,faker1998,My Town,1400,1400,0,0
106,168171880,[GEM]Cvu,My Town,1400,1400,0,0
107,167227350,tiki ozawa,My Town,1400,1400,0,0
108,166296290,Rahif [DUB],Rahif [DUB],1400,1400,0,0
109,165197310,MissFantastic,Wonderland,1400,1400,0,0
110,164909920,Gangbusta YT,Bustaville,1400,1400,0,0
111,164423680,Heaven_Hell,My Town,1400,1400,0,0
112,164258180,[GEM] eminem pkc,My Town,1400,1400,0,0
113,164237960,[GEM] ruler galaxy,My Town,1400,1400,0,0
114,164170970,Ieeepqeeeeeeeee,My Town,1400,1400,0,0
115,164146290,banton,My Town,1400,1400,0,0
116,162528560,The Captain [MOB],My Town,1400,1400,0,0
117,162234050,Suttida,My Town,1400,1400,0,0
118,162223730,Maynne,My Town,1400,1400,0,0
119,161290090,ZuX,My Town,1400,1400,0,0
120,161242680,lmou,My Town,1400,1400,0,0
121,160570800,ppejrak6,My Town,1400,1400,0,0
122,160277330,Delano_PB,DelanoPB [GEM],1400,1400,0,0
123,159531490,Bolacha [GEM],Selada,1400,1400,0,0
124,159211990,Opszyk,My Town,1400,1400,0,0
125,158579740,Wineryk | NLO,My Town,1400,1400,0,0
126,158245970,[GEM]  shendo sharinga,My Town,1400,1400,0,0
127,157332030,VirusRaYum,My Town,1400,1400,0,0
128,157107660,Vein [GEM],My Town,1400,1400,0,0
129,156677820,possum,Okefenokee,1400,1400,0,0
130,156260430,IceWaffle [GEM],My Town,1400,1400,0,0
131,156237780,Barerro | NLO,My Town,1400,1400,0,0
132,156220470,funkysmell,My Town,1400,1400,0,0
133,156204340,ft.Arcobaleno,My Town,1400,1400,0,0
134,155511010,Beta 007,My Town,1400,1400,0,0
135,155475350,Redfox78 [DUB],,1400,1400,0,0
136,155430260,vishty,My Town,1400,1400,0,0
137,155331120,Fernando Iannilli,My Town,1400,1400,0,0
138,154195450,Shihab | BTB,My Town,1400,1400,0,0
139,152256080,TAV2610,My Town,1400,1400,0,0
140,151286800,BengxBeng [GEM],My Town,1400,1400,0,0
141,151187890,BDN,My Town,1400,1400,0,0
142,151183800,LikeToba,My Town,1400,1400,0,0
143,151169420,Dashahere,My Town,1400,1400,0,0
144,150317400,COUCOU4,My Town,1400,1400,0,0
145,150284530,Yara8,My Town,1400,1400,0,0
146,150274880,Grinder-2,My Town,1400,1400,0,0
147,150212190,dry1688168,My Town,1400,1400,0,0
148,149849340,couchpotato,My Town,1400,1400,0,0
149,149300100,mijmij I NLO,My Town,1400,1400,0,0
150,149277600,Moriali [GEM],Moriali [GEM],1400,1400,0,0
151,149213540,Ricola,My Town,1400,1400,0,0
152,149081200,Artemon4ik,My Town,1400,1400,0,0
153,148340550,Placeholder,My Town,1400,1400,0,0
154,148207240,Voronezh,My Town,1400,1400,0,0
155,148078400,PM | TSM,PM,1400,1400,0,0
156,148048220,Pickleball,My Town,1400,1400,0,0
157,147274770,G3LFace,My Town,1400,1400,0,0
158,147155005,fatamorgana,fata.mor.gana | NLO,1400,1400,0,0
159,146258960,Jiddan39,My Town,1400,1400,0,0
160,146257140,eatyluggs | TSM,eatyluggs |TSM|,1400,1400,0,0
161,146249160,Thooa,Thooa_Dontdeleteme,1400,1400,0,0
162,146215380,BilolaBR,My Town,1400,1400,0,0
163,145396070,gandralfthegrey,gandralf [GEM],1400,1400,0,0
164,144395470,Giggles | BTB,Giggles,1400,1400,0,0
165,144261320,Barathaum[GEM],My Town,1400,1400,0,0
166,144227690,KryptoHunt,DSR + Skins,1400,1400,0,0
167,144185500,WhitEFanG,My Town,1400,1400,0,0
168,144169220,Jobister,My Town,1400,1400,0,0
169,143520140,Stan#1,My Town,1400,1400,0,0
170,143482820,MMEE,,1400,1400,0,0
171,143342400,Nomad I NLO,My Town,1400,1400,0,0
172,143319180,Team Gala Storm,My Town,1400,1400,0,0
173,143216485,Feoria|HVN,My Town,1400,1400,0,0
174,143194440,Tiago Freitas [GEM],My Town,1400,1400,0,0
175,142255670,bosa001 [GEM],bosa001 [GEM],1400,1400,0,0
176,142187860,Pb2,My Town,1400,1400,0,0
177,141453960,Chunkie723,My Town,1400,1400,0,0
178,140945770,R@w,My Town,1400,1400,0,0
179,140299150,ukirara,My Town,1400,1400,0,0
180,139688150,Artuxas,My Town,1400,1400,0,0
181,139280620,Just4Funnier,My Town,1400,1400,0,0
182,138516280,duy cau giay,My Town,1400,1400,0,0
183,138447470,edwardoB,My Town,1400,1400,0,0
184,138213560,dahmear,My Town,1400,1400,0,0
185,137415550,AdecitoS,AdecitoS,1400,1400,0,0
186,137378510,tokuda,My Town,1400,1400,0,0
187,137277280,Kitabe,My Town,1400,1400,0,0
188,137246890,Rayville,My Town,1400,1400,0,0
189,136456970,ECOpray,My Town,1400,1400,0,0
190,136348930,puff,My Town,1400,1400,0,0
191,136272260,LecoStar ,TownLecoStar,1400,1400,0,0
192,135400250,Zanini197,Zanini197,1400,1400,0,0
193,135344950,volam,My Town,1400,1400,0,0
194,135171690,NAKADAVI-TGS ,My Town,1400,1400,0,0
195,134307610,sameeh1,My Town,1400,1400,0,0
196,134306810,_ItsMeFrank_,ItsMeFrank [ MOB ],1400,1400,0,0
197,134269590,여신 <3,My Town,1400,1400,0,0
198,134239910,MrPottyMouth †TSM†,MrPottyMouth TSM,1400,1400,0,0
199,134237690,raylsonT26,My Town,1400,1400,0,0
200,133538800,makeitbetter,Hi townies,1400,1400,0,0
201,133368120,Adylos,My Town,1400,1400,0,0
202,133339640,bheng_akoto[GEM],My Town,1400,1400,0,0
203,133169040,maple09,My Town,1400,1400,0,0
204,132454770,Twilight Forger,My Town,1400,1400,0,0
205,132303350,iamWiam,My Town,1400,1400,0,0
206,131936520,vgxreflexz,My Town,1400,1400,0,0
207,131480030,Magnum Opus,My Town,1400,1400,0,0
208,131449070,SIGMA WOLF,Sigma,1400,1400,0,0
209,131400600,Urt Salot,UrtSalot [DUB],1400,1400,0,0
210,131348730,PockySanDee,My Town,1400,1400,0,0
211,131268010,Bang_dhede,Bang_dhede,1400,1400,0,0
212,131166130,Natalechkaplus,My Town,1400,1400,0,0
213,130483830,Cjgamer[DUB] ,My Town,1400,1400,0,0
214,130335720,monthlyrEd,My Town,1400,1400,0,0
215,130268780,Rock Star [GEM],My Town,1400,1400,0,0
216,130229790,Sedulur,My Town,1400,1400,0,0
217,129664140,Bali90,My Town,1400,1400,0,0
218,129477490,zhamrock[GEM],My Town,1400,1400,0,0
219,129353030,gyjmo4-cisqyf-saTzej,My Town,1400,1400,0,0
220,129243600,HoaChien,My Town,1400,1400,0,0
221,129182355,PearyDigiArts,My Town,1400,1400,0,0
222,128477910,Maribela,My Town,1400,1400,0,0
223,128391400,Yoda ,My Town,1400,1400,0,0
224,128155790,olena8,My Town,1400,1400,0,0
225,127470860,Coco2510,Cocoville,1400,1400,0,0
226,127277290,The Daniel Jackson,My Town,500,500,0,0
227,127248315,Vulture | NLO,Vulture | NLO,500,500,0,0
228,126228970,bg_dhee2,bg_dhee2,500,500,0,0
229,126171960,Jozef_Orce,My Town,500,500,0,0
230,125549580,Tokolosh [GEM],Tokolosh[GEM],500,500,0,0
231,125364880,Hemeltietjes,My Town,500,500,0,0
232,125346680,Kanaconda,Profanity,500,500,0,0
233,124684040,ghaji,My Town,500,500,0,0
234,124638175,iagotk,My Town,500,500,0,0
235,124331250,Jäger.,My Town,500,500,0,0
236,123515580,stsdmchv,My Town,500,500,0,0
237,123429290,Dugbo,My Town,500,500,0,0
238,123348660,boniaier,My Town,500,500,0,0
239,123338000,joo66,My Town,500,500,0,0
240,122330470,Drcrypto13,My Town,500,500,0,0
241,121265650,杰克逊,My Town,500,500,0,0
242,120562490,GMasterVlad | KAG,My Town,500,500,0,0
243,120459780,Qbert,My Town,500,500,0,0
244,120426070,ZRosaN,My Town,500,500,0,0
245,120417600,UltimateAcid,My Town,500,500,0,0
246,120094300,logalll,My Town,500,500,0,0
247,119620745,CGN|citizenX[GEM],hurryupandwait,500,500,0,0
248,119464180,Whatevs BTB,My Town,500,500,0,0
249,119343070,TypicalSurge[GEM],My Town,500,500,0,0
250,119313510,Guts ,My Town,500,500,0,0
251,119243240,Genagarm2023,My Town,500,500,0,0
252,118226300,dale105,My Town,500,500,0,0
253,118215900,SheikhAurum,My Town,500,500,0,0
254,117400770,CamCoin20,My Town,500,500,0,0
255,117347550,JohnnyCEHN[DUB],My Town,500,500,0,0
256,117285390,plasticnoodles,My Town,500,500,0,0
257,117232130,ᵀʷᶦᵗᶜʰTioTeii,My Town,500,500,0,0
258,116558950,DC001,My Town,500,500,0,0
259,116454420,Gobliano,My Town,500,500,0,0
260,116381660,no30dy,My Town,500,500,0,0
261,116353370,T911,My Town,500,500,0,0
262,116315810,TheLordPayne,LordTown [GEM],500,500,0,0
263,116282525,Mr.Robotto [GEM],My Town,500,500,0,0
264,116258450,BiroJasa,BiroJasa,500,500,0,0
265,115680550,Tyrial,My Town,500,500,0,0
266,115635090,Niksmom,My Town,500,500,0,0
267,115597520,Ambaland,Ambaland,500,500,0,0
268,115457040,Michitanu,My Town,500,500,0,0
269,115416980,schisti,My Town,500,500,0,0
270,115324000,Kyunix,My Town,500,500,0,0
271,115297300,Vertabine I NLO,My Town,500,500,0,0
272,115262950,Kel | NLO,My Town,500,500,0,0
273,115124770,cunyu,My Town,500,500,0,0
274,114473370,Said | NLO,My Town,500,500,0,0
275,114458210,Ancient Giant ,My Town,500,500,0,0
276,114363320,rusoluiz,My Town,500,500,0,0
277,114313810,oatcat,My Town,500,500,0,0
278,114282580,BROB_82,My Town,500,500,0,0
279,114154620,VIKING[DUB],VIKING [DUB],500,500,0,0
280,113633550,Rey  ,My Town,500,500,0,0
281,113433740,serkangp,My Town,500,500,0,0
282,113423700,CoachBeard,My Town,500,500,0,0
283,113329540,Secuchi,My Town,500,500,0,0
284,113328320,Keny,My Town,500,500,0,0
285,113229690,iShad,My Town,500,500,0,0
286,113150660,hubertden,My Town,500,500,0,0
287,113106180,wingd,My Town,500,500,0,0
288,112720920,ZOSO,ZOSO [DUB],500,500,0,0
289,112471630,NFT_Hunter [GEM] | TH,My Town,500,500,0,0
290,112461470,tupukka,My Town,500,500,0,0
291,112369480,antonio.m,My Town,500,500,0,0
292,111321330,chant [GEM],My Town,500,500,0,0
293,111276850,vasilevich87,My Town,500,500,0,0
294,111187460,Kadiland,My Town,500,500,0,0
295,110560930,anna_vip,My Town,500,500,0,0
296,110458830,ogbevireo,PinkDiamonds,500,500,0,0
297,110416770,Gloomster [GEM],My Town,500,500,0,0
298,110331080,JohnTheDon,My Town,500,500,0,0
299,110320800,StrategySavant,My Town,500,500,0,0
300,110307780,MastermindPlans,My Town,500,500,0,0
301,109380620,sylphid,My Town,500,500,0,0
302,109354070,Bovinski2728,Jinxme27,500,500,0,0
303,109327810,VeryFast,My Town,500,500,0,0
304,109190140,NKschamp,My Town,500,500,0,0
305,108613540,ClaudiuGabriel,CG Town,500,500,0,0
306,108459570,Paul_,My Town,500,500,0,0
307,108363810,HeimerDinger,My Town,500,500,0,0
308,108272580,MindfulCommander,My Town,500,500,0,0
309,107427870,Ruca777,Box a Ru | NLO,500,500,0,0
310,107342870,Micah,My Town,500,500,0,0
311,107304340,abbyazovt ,My Town,500,500,0,0
312,106456940,digaosoueu,My Town,500,500,0,0
313,106413810,Cryptoholic$ [GEM],My Town,500,500,0,0
314,106282630,Athena /TGS [GEM],Athena /TGS [GEM],500,500,0,0
315,106223180,Ackland,My Town,500,500,0,0
316,105996700,Jordan [GEM],My Town,500,500,0,0
317,105625405,Perrin66,My Town,500,500,0,0
318,105390180,Joskim,My Town,500,500,0,0
319,105376070,Salma*,My Town,500,500,0,0
320,105275480,BOBleon4ik,My Town,500,500,0,0
321,105192680,arsenalbd91,My Town,500,500,0,0
322,104668690,irenate,irenate,500,500,0,0
323,104433920,VAFatRabbit,BunnyTown,500,500,0,0
324,104366340,Rainman666,My Town,500,500,0,0
325,104327100,nanaVO,My Town,500,500,0,0
326,104289550,Masterteam,Masterteam TSM,500,500,0,0
327,104260780,SavvyReaL,SavvyReaL,500,500,0,0
328,103976690,MrTroopart,MrTroopa,500,500,0,0
329,103708420,Hordak,My Town,500,500,0,0
330,103316030,Fogmax I NLO,My Town,500,500,0,0
331,103297830,EfilforetsaM,EfilforetsaM,500,500,0,0
332,102865490,Digifarmer,My Town,500,500,0,0
333,102465860,Tyzor,Tyzoria,500,500,0,0
334,102426230,SiL,My Town,500,500,0,0
335,102393480,Dqwer,My Town,500,500,0,0
336,102382220,Miron2019,My Town,500,500,0,0
337,102356150,green chucky,My Town,500,500,0,0
338,102334930,MuskokaMike GEM,My Town,500,500,0,0
339,102315690,Shantyka,My Town,500,500,0,0
340,102306250,Katecrazy,My Town,500,500,0,0
341,102276820,AmanraPolaris,Amaranth,500,500,0,0
342,101805480,kingjon300 [GEM],kingjon300 [GEM],500,500,0,0
343,101407370,TriThieu,My Town,500,500,0,0
344,101359940,Vien1915,My Town,500,500,0,0
345,101287120,Avagotchi,My Town,500,500,0,0
346,101279780,KikimaraIn,My Town,500,500,0,0
347,101262810,TacticalStrategist,My Town,500,500,0,0
348,101258240,Nefex,My Town,500,500,0,0
349,101079325,WILLBAIK,My Town,500,500,0,0
350,100960450,Alavana,Grasmere,500,500,0,0
351,100784400,Iron Knight,My Town,500,500,0,0
352,100644240,djtom85,My Town,500,500,0,0
353,100564430,NFT Dropz [GEM],My Town,500,500,0,0
354,100480450,mWallon †TSM†,My Town,500,500,0,0
355,100440410,ives715,My Town,500,500,0,0
356,100373260,perlinfein,My Town,500,500,0,0
357,100285340,DisplayWa,My Town,500,500,0,0
358,100270940,Shivotnoe,My Town,500,500,0,0
359,100270490,FarmBildReady,My Town,500,500,0,0
360,100261780,MegatronForever,My Town,500,500,0,0
361,100250050,Galaxian#49914830,My Town,500,500,0,0
362,99381670,angel223,My Town,500,500,0,0
363,99362840,JUDEE44,BUDDYVILLE,500,500,0,0
364,99352130,Wolf7,Villa Luz,500,500,0,0
365,98398230,mClassiC[GEM],My Town,500,500,0,0
366,98372970,Antonio Silva,My Town,500,500,0,0
367,98360020,KarlZed,My Town,500,500,0,0
368,98308960,Annacsgo,My Town,500,500,0,0
369,98106385,Bogsoon,My Town,500,500,0,0
370,97641620,Hiiko,My Town,500,500,0,0
371,97347440,Radex,Rade,500,500,0,0
372,97340940,kaito1412,Kaito1412,500,500,0,0
373,97279780,shonthon,My Town,500,500,0,0
374,97275580,DINO79,My Town,500,500,0,0
375,97259230,PlanetaryPuppeteer,My Town,500,500,0,0
376,96761310,myzlabo,My Town,500,500,0,0
377,96446040,sgxlhar,My Town,500,500,0,0
378,96374110,EMY[GEM],EMY[GEM],500,500,0,0
379,96356020,Sakhawat,My Town,500,500,0,0
380,96288130,TupeTe Star,My Town,500,500,0,0
381,96256420,UltraSonico,My Town,500,500,0,0
382,95337810,FREE | TH,FREE | TH,500,500,0,0
383,95331580,Cini,CiniVille,500,500,0,0
384,95314420,Garibald,My Town,500,500,0,0
385,95177250,yama2235,My Town,500,500,0,0
386,94471880,Alpha | NLO,My Town,500,500,0,0
387,94450270,Hanpog,My Town,500,500,0,0
388,94437380,Panda | LWG,My Town,500,500,0,0
389,94388820,Sapphreya,My Town,500,500,0,0
390,94358090,Chowdary199,My Town,500,500,0,0
391,94343080,[Solo Leveling] Ranker,Solo Leveling,500,500,0,0
392,94307700,Asdery,My Town,500,500,0,0
393,94264110,9CJ,My Town,500,500,0,0
394,94261340,dreem,My Town,500,500,0,0
395,94240550,Bilgilendiriyor,My Town,500,500,0,0
396,93518290,Son_Dula,K's Jewerly,500,500,0,0
397,93485640,Irina P,My Town,500,500,0,0
398,93442710,ColdRoot | NLO,ColdRoot | NLO,500,500,0,0
399,93431620,Mikʞi,Mikki,500,500,0,0
400,93361670,jaeko TV,jaeko TV | HVN,500,500,0,0
401,93353930,Napster79 [GEM],My Town,250,250,0,0
402,93324790,rgb67033,My Town,250,250,0,0
403,93276640,DUDRON,My Town,250,250,0,0
404,93271450,Apus55,My Town,250,250,0,0
405,93247670,Jamaris,Jamaris,250,250,0,0
406,93167040,SafePoolMan,My Town,250,250,0,0
407,92646240,TownBuilders,My Town,250,250,0,0
408,92474210,wardus,My Town,250,250,0,0
409,92426140,Ayhan81,My Town,250,250,0,0
410,92268110,maryng,My Town,250,250,0,0
411,92254000,JuxiesT,My Town,250,250,0,0
412,92175540,DesignAlchemy,My Town,250,250,0,0
413,91606190,elizag,My Town,250,250,0,0
414,91443470,tsuaurym,My Town,250,250,0,0
415,91374240,LAEL,My Town,250,250,0,0
416,91366510,saeed farno,My Town,250,250,0,0
417,91360960,Loneli,My Town,250,250,0,0
418,91313670,Queen0042,My Town,250,250,0,0
419,91273060,daggood,My Town,250,250,0,0
420,91252660,xTupeTe,Tenebroso,250,250,0,0
421,91237910,chutjaneth,My Town,250,250,0,0
422,90694500,Sapperlight,My Town,250,250,0,0
423,90634920,Delta Nine Club,HeyNow!,250,250,0,0
424,90520280,Kaitooo,my town,250,250,0,0
425,90428640,RVT,My Town,250,250,0,0
426,90389130,Pickle_rick,My Town,250,250,0,0
427,90331100,Worada,My Town,250,250,0,0
428,90202200,FermerPricher,My Town,250,250,0,0
429,90201810,LoveStoreMiss,My Town,250,250,0,0
430,90187670,PixelSculptor,My Town,250,250,0,0
431,89568280,Rug P,My Town,250,250,0,0
432,89467190,KAPTENBLACK,My Town,250,250,0,0
433,89464710,ZhuangXH,My Town,250,250,0,0
434,89442280,LuckyDog,My Town,250,250,0,0
435,89417590,EnemyOfYours,My Town,250,250,0,0
436,89413080,Binisen,My Town,250,250,0,0
437,89406220,Ellit#2211441141,My Town,250,250,0,0
438,89344880,HigoHigo,My Town,250,250,0,0
439,89321870,SpongeRob,SpongeR,250,250,0,0
440,89320990,nsepehrn,My Town,250,250,0,0
441,89217620,NamadForever,My Town,250,250,0,0
442,89216300,FamosTaller,My Town,250,250,0,0
443,89212200,StratagemSculptor,My Town,250,250,0,0
444,89211130,MisterFakor,My Town,250,250,0,0
445,89133150,bomba_funnygun,My Town,250,250,0,0
446,88596280,MW911,MW911,250,250,0,0
447,88537090,IvanbadGamer,IvanbadGamer,250,250,0,0
448,88404150,alisblog,My Town,250,250,0,0
449,88387350,Life,My Town,250,250,0,0
450,88377670,Wasure,Top 500 LFG,0,250,0,250
451,88359650,vegetto_lv4,vegetto_lv4 Town,250,250,0,0
452,88318590,TiTo Gamer,My Town,250,250,0,0
453,88290440,skif42,My Town,250,250,0,0
454,88285930,WWEED,My Town,250,250,0,0
455,88216780,MyNetworkFind,My Town,250,250,0,0
456,87445420,Hawkcubed,My Town,250,250,0,0
457,87420400,Colonian,My Town,250,250,0,0
458,87359900,ESTRELAEDC,My Town,250,250,0,0
459,87232090,Gitikuno,My Town,250,250,0,0
460,87214420,andry391,My Town,250,250,0,0
461,87199370,Xwarr | NLO ,My Town,250,250,0,0
462,86303760,DAD21,My Town,250,250,0,0
463,86258840,ChaaCha,ChaaCha,250,250,0,0
464,86254220,IntellectWarlord,My Town,250,250,0,0
465,86248860,graciele,My Town,250,250,0,0
466,86183660,Lityka3,My Town,250,250,0,0
467,85402320,Fingers,My Town,250,250,0,0
468,85325130,Jandalf78[GEM],Veitsi,250,250,0,0
469,85304600,coringaonf,My Town,250,250,0,0
470,85292320,Elroi,My Town,250,250,0,0
471,85271810,Frozen Trojan,My Town,0,250,0,250
472,85263000,GoogleDirol,My Town,250,250,0,0
473,85259130,Luwna,My Town,250,250,0,0
474,84541250,PharmerMichelle,My Town,250,250,0,0
475,84346030,ip77,My Town,250,250,0,0
476,83476120,_Sh4d0w_,My Town,250,250,0,0
477,83400960,Noeyeiei,My Town,250,250,0,0
478,83396940,Lordabak,My Town,250,250,0,0
479,83324130,Treedolphin,My Town,250,250,0,0
480,83250410,Birrique [GEM],My Town,250,250,0,0
481,82678190,Icedbox,Icedbox,250,250,0,0
482,82510980,3picNam3,3picNam3,250,250,0,0
483,82451400,Tronokharca,My Town,250,250,0,0
484,82428160,Zsolesz_,My Town,250,250,0,0
485,82419060,peejiidee,My Town,250,250,0,0
486,82394280,ZeusG,Olimp,250,250,0,0
487,82375190,uKz,My Town,250,250,0,0
488,82357780,TofuAU,My Town,250,250,0,0
489,82354660,Jagermeister_gg,My Town,250,250,0,0
490,82208600,Propoupan [GEM],My Town,250,250,0,0
491,81663230,MarcioJustin,My Town,250,250,0,0
492,81560280,JTDragon76,My Town,250,250,0,0
493,81454660,AlexanderPolli,blablacity,250,250,0,0
494,81447830,Pepsikolnyi,My Town,250,250,0,0
495,81372840,cichy48,My Town,250,250,0,0
496,81359980,Luna | CAC,My Town,250,250,0,0
497,81343610,Ganjar16,My Town,250,250,0,0
498,81328420,qingqing,My Town,250,250,0,0
499,81302280,Romario77737,Rome,250,250,0,0
500,81268820,Sliferus,My Town,250,250,0,0
501,81234140,Xutu,My Town,250,250,0,0
502,80594300,Fen!x | NLO,My Town,250,250,0,0
503,80540370,M8TE_,My Place,250,250,0,0
504,80536935,Liiiissaaaa,My Town,250,250,0,0
505,80530340,inexile,My Town,250,250,0,0
506,80504530,Rev0k,My Town,250,250,0,0
507,80376710,SirKewlaid,My Town,250,250,0,0
508,80314390,GluayJeng,My Town,250,250,0,0
509,80258330,tebb,My Town,250,250,0,0
510,80240910,[GEM]TheSnowQueen,[GEM]TheSnowQueen,250,250,0,0
511,79695010,AerospaceApe,My Town,250,250,0,0
512,79574380,CookieMonster,My Town,250,250,0,0
513,79547870,Genlean HVN,My Town,250,250,0,0
514,79406650,Judas at DUB,My Town,250,250,0,0
515,79359360,Sjefkez,My Town,250,250,0,0
516,79343010,c0nverse,MARVEL,250,250,0,0
517,79307680,the hungkul,My Town,250,250,0,0
518,79296720,god war,My Town,250,250,0,0
519,79289760,Bazsi86,My Town,250,250,0,0
520,79251600,Phoboss,My Town,250,250,0,0
521,78393280,Nomadic_Sean,My Town,250,250,0,0
522,78345160,ayzul,ayzul,250,250,0,0
523,78342900,[GEM] Kensin,My Town,250,250,0,0
524,78327320,Firefighter78,My Town,250,250,0,0
525,78322790,donJeff,My Town,250,250,0,0
526,78302110,Katon92,My Town,250,250,0,0
527,78247600,revera,My Town,250,250,0,0
528,77590260,Deathbringr,My Town,250,250,0,0
529,77555440,00100100,My Town,250,250,0,0
530,77386370,aree444 [GEM],My Town,250,250,0,0
531,77380200,Ehdghel,My Town,250,250,0,0
532,77368480,paulnray,My Town,250,250,0,0
533,77270710,Dubdubom,My Town,250,250,0,0
534,77266280,sysdba,My Town,250,250,0,0
535,76580500,Wemade,My Town,250,250,0,0
536,76545330,Pixie Dust | NLO,Pixie Dust | NLO,250,250,0,0
537,76512480,Shagathal [GEM],Humbleville [GEM],250,250,0,0
538,76466550,zsuzsigregor,My Town,250,250,0,0
539,76455060,WHOOSH,My Town,250,250,0,0
540,76406100,Okolol,My Town,250,250,0,0
541,76351220,Toxicc,My Town,250,250,0,0
542,76275620,but75413,My Town,250,250,0,0
543,76016560,LuvVille,,250,250,0,0
544,75959850,WarnMe,Warntown,250,250,0,0
545,75814310,ShamrockGingee,My Town,250,250,0,0
546,75568580,cookie.u /TKG,My Town,250,250,0,0
547,75558200,WARRIOR-711,My Town,250,250,0,0
548,75529500,3littlemonkeys,My Town,250,250,0,0
549,75517020,Silky Bazaar,My Town,250,250,0,0
550,75464340,8gallonphil,My Town,250,250,0,0
551,75389370,2.5TDS,My Town,250,250,0,0
552,75371400,victor45,My Town,250,250,0,0
553,75335900,BkWall,My Town,250,250,0,0
554,75320910,ismaelsam,My Town,250,250,0,0
555,75319480,Galaxian#33006921,My Town,250,250,0,0
556,75301410,Knull369,My Town,250,250,0,0
557,75300970,Type35,My Town,250,250,0,0
558,75300760,micia,My Town,150,250,0,100
559,75216730,氷淇淋,My Town,250,250,0,0
560,74404880,Milen90,My Town,250,250,0,0
561,74367070,zMariano [GEM],My Town,250,250,0,0
562,74361630,GenaB,My Town,250,250,0,0
563,74328120,yrii13,My Town,250,250,0,0
564,74285150,Herero,My Town,250,250,0,0
565,73745590,bitc7180 [GEM],Bitc123,250,250,0,0
566,73671040,Mad Max | NTM,My Town,250,250,0,0
567,73464300,GMS73,My Town,250,250,0,0
568,73438230,JNY21,My Town,250,250,0,0
569,73436180,djin666,My Town,250,250,0,0
570,73400170,LloydValentine,My Town,250,250,0,0
571,73363940,Icebums,My Town,250,250,0,0
572,73321440,AgueJIa,My Town,250,250,0,0
573,73269140,RiAl,My Town,250,250,0,0
574,73187040,JmJ,My Town,250,250,0,0
575,73112060,Alamaaak [GEM],Alamaak [GEM],250,250,0,0
576,72903140,Kenny A [DUB],Box of money,250,250,0,0
577,72611280,Kringseskhan [GEM],My Town,250,250,0,0
578,72517690,Gholes,My Town,250,250,0,0
579,72484200,PadmAndroid,My Town,250,250,0,0
580,72484140,jarnMod | KFP Sticky Note Service,KFP,250,250,0,0
581,72419140,Nikolaikov,My Town,250,250,0,0
582,72407600,Seakernel,Seakernel,250,250,0,0
583,72378360,Ula.,My Town,250,250,0,0
584,72371090,Fudo1,My Town,250,250,0,0
585,72333910,Meow | CAT,Meow_CAT | LWG,250,250,0,0
586,72307500,haz83,My Town,250,250,0,0
587,72197490,Andiv10,My Town,250,250,0,0
588,71563810,ExR07,My Town,250,250,0,0
589,71489740,LadyBurn,My Town,250,250,0,0
590,71444890,Winshock,My Town,250,250,0,0
591,71422960,Lord @xel,My Town,250,250,0,0
592,71329700,Katsumik,My Town,250,250,0,0
593,71283430,Rip_Kokushibo01,My Town,250,250,0,0
594,71234040,Rosevulpes [GEM],My Town,250,250,0,0
595,71147050,yêubếuuuu,My Town,250,250,0,0
596,70704125,Oxy [GEM],Oxy [GEM],250,250,0,0
597,70607520,CRYPTODUDE,CRYPTODUDE | LWG,250,250,0,0
598,70557410,DEIMOS,My Town,250,250,0,0
599,70470960,ShEvil,My Town,250,250,0,0
600,70302600,bernd,My Town,250,250,0,0
601,70294530,Ascaris01,My Town,150,150,0,0
602,69630860,Pixel Pulse,My Town,150,150,0,0
603,69547340,SoulShoT,My Town,150,150,0,0
604,69530140,Nitiwa [GEM],Nit123,150,150,0,0
605,69435870,sandybeach,Beach Town,150,150,0,0
606,68464190,Ardafa_Inzaghi,My Town,150,150,0,0
607,68463410,MOHMAD0788,My Town,150,150,0,0
608,68408760,gadreis,My Town,150,150,0,0
609,68354670,TheM [GEM],TheM [GEM],150,150,0,0
610,68348310,Музыкальный файл_gg,My Town,150,150,0,0
611,68326330,JASPS,1+1=GALA don't know,150,150,0,0
612,68292980,tresh,My Town,150,150,0,0
613,68286970,Hoffsteder,My Town,0,150,0,150
614,67994170,VGroots,My Town,150,150,0,0
615,67821340,Paul G Spot,My Town,150,150,0,0
616,67569910,Itsuka,My Town,150,150,0,0
617,67540680,SIIgamemaster,My Town,150,150,0,0
618,67471320,dani777,My Town,150,150,0,0
619,67371190,SoulisYT,My Town,150,150,0,0
620,67343690,MacTheOne,My Town,150,150,0,0
621,67333900,Cawell,My Town,150,150,0,0
622,67286470,Hisoka_GM,My Town,150,150,0,0
623,67275730,turbo engine,My Town,150,150,0,0
624,66684460,djdigsut,My Town,150,150,0,0
625,66496510,Phentoma,My Town,150,150,0,0
626,66396750,AnastasiyA,My Town,150,150,0,0
627,66349660,Toninho,My Town,150,150,0,0
628,66287820,isaques,My Town,150,150,0,0
629,66120390,hellofriends,My Town,150,150,0,0
630,65672465,[MOB] Pixel Mouse,My Town,150,150,0,0
631,65604525,0ttakrieger,My Town,150,150,0,0
632,65534370,zalugas,My Town,150,150,0,0
633,65467905,541F007,My Town,150,150,0,0
634,65424610,Zabka NLO,My Town,150,150,0,0
635,65388120,Wchoa,My Town,150,150,0,0
636,65332160,ateRNEveN,My Town,150,150,0,0
637,64887160,Xyloid,My Town,150,150,0,0
638,64786890,Agi62,My Town,150,150,0,0
639,64604980,Nils2d2,My Town,150,150,0,0
640,64565500,qpAnzu,My Town,150,150,0,0
641,64438360,Raay [GEM],My Town,150,150,0,0
642,64421230,TrialNError,My Town,150,150,0,0
643,64419790,UNFixEye,UNFixEye,150,150,0,0
644,64379990,PURENASTY,My Town,150,150,0,0
645,64374300,kuralsiz0949,My Town,150,150,0,0
646,64353530,Lazerous,My Town,100,150,0,50
647,64219390,MatrixGames,My Town,150,150,0,0
648,63567830,Tanya van der Walt,My Town,150,150,0,0
649,63482930,kenshinsama,My Town,150,150,0,0
650,63438240,dacoi,My Town,150,150,0,0
651,63405820,VendrethUK [GEM],VendrethUK [GEM],150,150,0,0
652,63293580,Dhaka001,My Town,150,150,0,0
653,63286750,carboxyte,My Town,150,150,0,0
654,62953905,FLAMAD,My Town,150,150,0,0
655,62629190,Bandit2,,150,150,0,0
656,62553610,SLD'Pas,My Town,0,150,0,150
657,62552640,loradzi,kat house,150,150,0,0
658,62397520,Tigress2358,My Town,150,150,0,0
659,62344930,GulistaY,GulistaY,150,150,0,0
660,62287670,LeMona,My Town,150,150,0,0
661,62277100,Love of my Life,My Town,150,150,0,0
662,62255050,Norbertlajos,My Town,150,150,0,0
663,61795950,KNN [GEM],My Town,150,150,0,0
664,61701330,greylorn,My Town,150,150,0,0
665,61555660,alen.nongradi,My Town,150,150,0,0
666,61541320,MINA43,MINA43,150,150,0,0
667,61459120,Itistosilly,My Town,150,150,0,0
668,61449480,PELON_BC,My Town,150,150,0,0
669,61390600,sergio gonçalves,My Town,0,150,0,150
670,61390400,Harsh2021,My Town,150,150,0,0
671,61301660,NapalmGandalf,My Town,150,150,0,0
672,61247370,SAPER,My Town,150,150,0,0
673,60552580,Judge[GEM],My Town,150,150,0,0
674,60449220,ทองย้อย,deemark,150,150,0,0
675,60419680,Thehoodedclaw,Thehoodedclaw,150,150,0,0
676,60412450,EchoNine,My Town,150,150,0,0
677,60392510,Chopstix,My Town,150,150,0,0
678,60387760,Galaxian#99918956,My Town,150,150,0,0
679,60375740,Sagramo82,My Town,150,150,0,0
680,60326400,Rheint,My Town,150,150,0,0
681,60280770,Jeffyjazz,My Town,150,150,0,0
682,60246760,Ania.Valeria,My Town,150,150,0,0
683,59335740,Smax,My Town,150,150,0,0
684,59323090,Careheed,My Town,0,150,0,150
685,59297390,TOWNSTAR1,My Town,150,150,0,0
686,59297330,leolike,My Town,150,150,0,0
687,59189900,mofei202205@163.com,My Town,0,150,0,150
688,59010220,Moise M,Moise M,150,150,0,0
689,58525010,TILLYSTER,My Town,150,150,0,0
690,58457590,Thorfinnlegion,My Town,150,150,0,0
691,58449980,FifaRafa,My Town,150,150,0,0
692,58361830,Sim_peaches,My Town,150,150,0,0
693,58266180,Galaxian#63914036,My Town,150,150,0,0
694,57395880,NiftyNeal,My Town,150,150,0,0
695,57378970,Volrem,My Town,150,150,0,0
696,57361830,Sofie,My Town,150,150,0,0
697,57332630,Vesh,My Town,150,150,0,0
698,57315120,Mix_IK,My Town,150,150,0,0
699,57290280,Weedpromoe,My Town,150,150,0,0
700,57289960,WS_Kei,My Town,150,150,0,0
701,57223890,Saran86,My Town,150,150,0,0
702,56473020,Fyemes,My Town,150,150,0,0
703,56470860,Davilson2004,My Town,150,150,0,0
704,56410690,darlok,My Town,150,150,0,0
705,56360100,Vrangel,Vrangel,150,150,0,0
706,56347160,Eduardosales,My Town,150,150,0,0
707,56218440,Scooby300,My Town,150,150,0,0
708,55966275,Hansa,My Town,150,150,0,0
709,55897430,Herjulf [GEM],My Town,150,150,0,0
710,55745205,Thidongsu,My Town,150,150,0,0
711,55644750,CryptoDawg,My Town,150,150,0,0
712,55594700,サービス,My Town,150,150,0,0
713,55518560,Gabe308,My Town,150,150,0,0
714,55514560,Konishi,KonishiLand [GEM],150,150,0,0
715,55440560,Lilyyang,My Town,150,150,0,0
716,55295820,trupower,My Town,150,150,0,0
717,55089840,dreamgame,My Town,150,150,0,0
718,54525670,Blunder,Blunder Ville,150,150,0,0
719,54479290,@DsxNiick,My Town,150,150,0,0
720,54431030,CashKing17,My Town,150,150,0,0
721,54422340,IsotopeX,My Town,0,150,0,150
722,54322010,TupeTe2,Trouler,150,150,0,0
723,54222940,Boysand61,My Town,150,150,0,0
724,53421860,XxJhomzxX,My Town,150,150,0,0
725,53373480,gafik,My Town,150,150,0,0
726,53338540,Galaxian#35946728,My Town,150,150,0,0
727,53337970,Winning,My Town,150,150,0,0
728,53330150,Town Town,My Town,150,150,0,0
729,53323110,Mahbubul,Box,150,150,0,0
730,53289550,Krabs,My Town,150,150,0,0
731,52653960,Lupuspupus,My Town,150,150,0,0
732,52451590,AboveSERPS,My Town,150,150,0,0
733,52436400,dilanz17,Dilanz17,150,150,0,0
734,52363860,sushiboy,sushi,150,150,0,0
735,52335690,pat_q,patq,150,150,0,0
736,52301680,Agoravai21,My Town,150,150,0,0
737,52232340,MAFIA [DUB],My Town,150,150,0,0
738,52222310,Yukionx,My Town,150,150,0,0
739,51865130,Mizzamir [GEM],My Town,150,150,0,0
740,51570770,HappyT,My Town,150,150,0,0
741,51519420,nkr_naptgem,My Town,150,150,0,0
742,51409180,Lance115,My Town,150,150,0,0
743,51311480,EdyBug,Deyse Corp.,150,150,0,0
744,51280080,Ganyusimp,My Town,150,150,0,0
745,51277680,ZeroFox84,My Town,150,150,0,0
746,51262460,Hannako,My Town,150,150,0,0
747,51164285,sared2x,My Town,150,150,0,0
748,50994110,Druifje [GEM],My Town,150,150,0,0
749,50576510,Mavk,My Town,150,150,0,0
750,50503130,DPRoberts,My Town,150,150,0,0
751,50442000,Ternnoi,My Town,150,150,0,0
752,50436700,GabbihNaldo,My Town,150,150,0,0
753,50414160,ETC [GEM],My Town,150,150,0,0
754,50327980,mayarend,May Town,150,150,0,0
755,50317570,Bast4r*,My Town,0,150,0,150
756,50287630,Galaxian#03704379,My Town,150,150,0,0
757,50249920,fabiobinance,My Town,150,150,0,0
758,49968110,Dr04Gaming,My Town,150,150,0,0
759,49781070,[MOB]BilzeBoB87,,150,150,0,0
760,49686170,Matti120,matti120,150,150,0,0
761,49466770,hlinhvlog,NIco,150,150,0,0
762,49424220,Coose11,My Town,150,150,0,0
763,49389490,Zerick,My Town,150,150,0,0
764,49373520,Neokills,My Town,150,150,0,0
765,49277220,GemT,My Town,150,150,0,0
766,49266680,kasit,My Town,150,150,0,0
767,49046630,Pocari,Pocaville,150,150,0,0
768,48697530,Hero98765,My Town,150,150,0,0
769,48664000,RichV7 | LWG,RichV,150,150,0,0
770,48634800,다이나 킹,Jangs town,150,150,0,0
771,48509600,Galaxian#07271478,STAR WIN,150,150,0,0
772,48340920,Devimillo,My Town,150,150,0,0
773,48273180,virtunic [GEM],My Town,150,150,0,0
774,48256390,AcH1Le,My Town,150,150,0,0
775,48247150,TaraMandi™,My Town,0,150,0,150
776,47800000,pulsesilver,My Town,150,150,0,0
777,47792330,serovservic,My Town,150,150,0,0
778,47689890,animationdad,My Town,150,150,0,0
779,47616180,ジョンストン,My Town,150,150,0,0
780,47425700,ChatOFF,My Town,150,150,0,0
781,47342750,AdrianZ,My Town,150,150,0,0
782,47258080,LeoAlmeidaMusic,,150,150,0,0
783,46528280,TwitchDarkzera,Darkzera,150,150,0,0
784,46366560,ODoyleRules,My Town,150,150,0,0
785,46327120,GabbihSantuus,My Town,150,150,0,0
786,46262310,Darkcoin2022,My Town,150,150,0,0
787,46165610,Frogtown | HVN,My Town,150,150,0,0
788,45866220,Theseas,Theseas [DUB],150,150,0,0
789,45219530,JeFFyNuM,My Town,150,150,0,0
790,44916440,AlexMaria,My Town,150,150,0,0
791,44843400,KhuongHuynh,My Town,150,150,0,0
792,44486240,Gualex,My Town,150,150,0,0
793,44381060,NingJimin,My Town,150,150,0,0
794,44379000,Deburingo2,My Town,150,150,0,0
795,43639300,AanIzuna,My Town,150,150,0,0
796,43435560,Spacefrog,My Town,150,150,0,0
797,43378710,phantomcow,moomooland,150,150,0,0
798,43322420,Uncle Scott,My Town,150,150,0,0
799,43318440,pojai,My Town,150,150,0,0
800,43079370,Mahbubah98,My Town,150,150,0,0
801,42778140,Neamtzu23,Lovrin,150,150,0,0
802,42520470,sami11,My Town,150,150,0,0
803,42439430,BlastingKhan,Elixir City,150,150,0,0
804,42369430,SergioGans,My Town,150,150,0,0
805,42364560,Noah69,My Town,150,150,0,0
806,42335090,VACHANG,My Town,150,150,0,0
807,42311840,Negrones,zanella,150,150,0,0
808,42292550,CryptoFrog | HVN,My Town,150,150,0,0
809,42284290,angriff,My Town,150,150,0,0
810,41766150,KannaNupe,My Town,150,150,0,0
811,41509090,Omid.ja,Onid.ja,150,150,0,0
812,41427040,jwtown,JWTown,150,150,0,0
813,41370640,Little Daisy,My Town,150,150,0,0
814,41252870,JeffsTV,My Town,150,150,0,0
815,41209520,Heskin,My Town,150,150,0,0
816,41180950,hottoshotto,My Town,150,150,0,0
817,40901180,LTown,My Town,150,150,0,0
818,40636210,TheNFTNoob,My Town,150,150,0,0
819,40480250,LeroyJenkins,My Town,150,150,0,0
820,40381910,Bandorus,My Town,150,150,0,0
821,40313470,Siavash,My Town,150,150,0,0
822,40224670,rexen92,My Town,150,150,0,0
823,40048780,Jeffe Sailor,My Town,150,150,0,0
824,39950800,Seawolf,My Town,150,150,0,0
825,39476690,crom,My Town,150,150,0,0
826,39462180,Rapi,My Town,150,150,0,0
827,39402190,kakashi coc,My Town,150,150,0,0
828,39341970,Nas27,My Town,150,150,0,0
829,39312730,Ninguem,My Town,0,150,0,150
830,39236740,MK-OB,MK-OB [GEM],150,150,0,0
831,39162000,Vincentk,My Town,150,150,0,0
832,38931940,Bademli Seker,My Town,150,150,0,0
833,38657850,gG,My Town,150,150,0,0
834,38563180,sqltracker,My Town,150,150,0,0
835,38368790,Quinn.,My Town,0,150,0,150
836,38351180,xanderas,My Town,150,150,0,0
837,38314930,Tippo1,[MOB] TIPPO,150,150,0,0
838,38169480,evil666,My Town,150,150,0,0
839,37631360,Célio,My Town,150,150,0,0
840,37540330,Flying_Hotwing,My Town,150,150,0,0
841,37386340,zAlisson,My Town,150,150,0,0
842,37337110,SanZon,My Town,150,150,0,0
843,37282180,Franzz7,My Town,0,150,0,150
844,37243450,Sitthikant,My Town,0,150,0,150
845,37233570,AnyaKia,My Town,150,150,0,0
846,36892715,Devilena Futura,Dev,150,150,0,0
847,36633250,OffGridRancher[GEM],,150,150,0,0
848,36519960,**GAMERS7410**,My Town,150,150,0,0
849,36442290,Nicky_,My Town,50,150,0,100
850,36437530,Churchs,My Town,150,150,0,0
851,36319780,Thody,My Town,0,150,0,150
852,36303430,Angel of Death2,My Town,150,150,0,0
853,36222850,Lalinoriega,My Town,150,150,0,0
854,35749930,Liamitus,My Town,150,150,0,0
855,35644640,wilson / NTM-r,My Town,150,150,0,0
856,35465370,Vivel,My Town,150,150,0,0
857,35454720,atlasty,My Town,150,150,0,0
858,35399660,Hervest/TKG,My Town,150,150,0,0
859,35337720,Galaxian#47813224,My Town,150,150,0,0
860,35319940,Hainaku,JolliTown,150,150,0,0
861,35241190,Proxima500,My Town,0,150,0,150
862,34627460,EvoLveN99,My Town,150,150,0,0
863,34472460,edmais,edmais,150,150,0,0
864,34421510,Rossi199,My Town,150,150,0,0
865,34377160,Striker Build,My Town,150,150,0,0
866,34362520,Asheron,My Town,150,150,0,0
867,34348200,Augie73,My Town,150,150,0,0
868,34306350,Ruancv,My Town,150,150,0,0
869,34302150,Leaf[GEM],My Town,150,150,0,0
870,33425970,ShawnAce,Shana,150,150,0,0
871,33409050,Muletto,My Town,150,150,0,0
872,33393870,GoldenGStar,My Town,150,150,0,0
873,33382710,Mayharm,My Town,150,150,0,0
874,33347660,jif,My Town,150,150,0,0
875,33322000,Phonpawee,My Town,150,150,0,0
876,33251850,chix,My Town,150,150,0,0
877,33228960,Magznumb,My Town,0,150,0,150
878,33120250,pepe11113,My Town,150,150,0,0
879,32741005,Aku [BTB],My Town,150,150,0,0
880,32590600,MetaMug,My Town,150,150,0,0
881,32450460,FireFistX,My Town,0,150,0,150
882,32410480,Croocs,My Town,150,150,0,0
883,32356580,jackmister,My Town,150,150,0,0
884,32352650,jerwindf,My Town,150,150,0,0
885,32256950,cris369,My Town,150,150,0,0
886,31509280,TheDarkGane,My Town,150,150,0,0
887,31477510,feltro9047,feltro,0,150,0,150
888,31398330,SilentThunder7,My Town,150,150,0,0
889,31370160,OldSchoolGamer01,My Town,150,150,0,0
890,31345770,Yaazit,My Town,150,150,0,0
891,31335500,Sokheang,My Town,150,150,0,0
892,31324600,luxlox,My Town,150,150,0,0
893,31320070,whiplash19,My Town,150,150,0,0
894,31188680,Galaxian#14247414,My Town,150,150,0,0
895,31185970,Loading96,My Town,150,150,0,0
896,30924535,PewPewTurret,My Town,150,150,0,0
897,30695710,Oakenshield,Oakenshield,0,150,0,150
898,30681080,아무리생강캐도난마늘,My Town,25,150,0,125
899,30417260,PATONG305,P A T O N G,150,150,0,0
900,30271000,Solaris1,My Town,150,150,0,0
901,30232960,gunny,My Town,100,100,0,0
902,30186430,Listone,My Town,100,100,0,0
903,30185610,Gtz27,My Town,100,100,0,0
904,29686620,Nuk,Nuk | TH,100,100,0,0
905,29514430,Bernz|BTB-r,Bernz,0,100,0,100
906,29495430,ThePox,My Town,100,100,0,0
907,29362530,FGDN,My Town,100,100,0,0
908,29360640,EternoAprendiz,My Town,100,100,0,0
909,29316880,NasBen,NasBen [GEM],100,100,0,0
910,29292140,MrVictor,My Town,100,100,0,0
911,29248350,Le0n-,My Town,100,100,0,0
912,29208560,KUM,Qmi Town,0,100,0,100
913,29003485,Aaron1050 | BTB,My Town,100,100,0,0
914,28742650,imahoppy,My Town,100,100,0,0
915,28596520,SAM0h1,My Town,100,100,0,0
916,28521200,ZRoch,My Town,100,100,0,0
917,28508890,Baked Potato,My Town,100,100,0,0
918,28405800,Joxe_37,Euskadi<Dub>,100,100,0,0
919,28357670,Swildz,My Town,0,100,0,100
920,28349030,Hoangtoi,My Town,100,100,0,0
921,28312670,EvonThoo,My Town,100,100,0,0
922,28117640,chemvlad,My Town,100,100,0,0
923,27464070,mahdi111,My Town,100,100,0,0
924,27459000,John Snow,My Town,100,100,0,0
925,27451020,Drunkmonkey,My Town,0,100,0,100
926,27429790,WillauraWolf,My Town,100,100,0,0
927,27393820,Grundy,My Town,100,100,0,0
928,27370660,Lazeryth,My Town,100,100,0,0
929,27354140,Subzero1987,My Town,100,100,0,0
930,27348380,Ryl.D,My Town,100,100,0,0
931,27259750,itkorpiboon,My Town,100,100,0,0
932,27197290,SUBARNO,My Town,100,100,0,0
933,27167460,Vogue_,My Town,100,100,0,0
934,27032910,safawfafaWQ,My Town,100,100,0,0
935,26571470,Rafael296,My Town,100,100,0,0
936,26325090,Rip_Akaza03,Rip_Akaza03,100,100,0,0
937,26302310,1984mopar,My Town,100,100,0,0
938,26289380,fugo55,My Town,100,100,0,0
939,26238310,IVUK,My Town,100,100,0,0
940,26128910,Roseville,My Town,100,100,0,0
941,25809080,-mutsu-,My Town,0,100,0,100
942,25788530,Kdadasd,My Town,100,100,0,0
943,25604160,Bata84,My Town,100,100,0,0
944,25590490,Nkitts200,My Town,100,100,0,0
945,25513210,inTimeZ,My Town,100,100,0,0
946,25491850,kvan,My Town,100,100,0,0
947,25475220,PrisCred,Priscred,100,100,0,0
948,25329160,HIWAYS,My Town,100,100,0,0
949,25322390,AGJPAREE/NAKA,My Town,100,100,0,0
950,25311760,Wirach,My Town,100,100,0,0
951,25204660,High,My Town,100,100,0,0
952,25159660,ujenk,My Town,100,100,0,0
953,25128330,BahayKubo,My Town,100,100,0,0
954,25088190,마공주마,My Town,100,100,0,0
955,24964080,otherdav,Otherdavtown,100,100,0,0
956,24532610,[GEM]Sonoskebad,My Town,100,100,0,0
957,24452940,Chris8080,My Town,100,100,0,0
958,24427670,Signal-Global,My Town,0,100,0,100
959,24420060,Slavinicus,My Town,100,100,0,0
960,24388560,Krzyzitopor,My Town,100,100,0,0
961,24351560,Hully87,My Town,100,100,0,0
962,24284930,Galaxian#78912514,My Town,100,100,0,0
963,24251550,WilCosta,My Town,100,100,0,0
964,24245690,JVSloth,My Town,0,100,0,100
965,23380960,Kimboon,My Town,100,100,0,0
966,23373020,eduardoinbox,My Town,100,100,0,0
967,23367150,Jenny2day,My Town,100,100,0,0
968,23347600,Chewbacca ,My Town,100,100,0,0
969,23313240,Spark#8411,My Town,100,100,0,0
970,23308860,Anumart,My Town,0,100,0,100
971,23290360,tehgamesfili,My Town,100,100,0,0
972,23261720,harmi,My Town,100,100,0,0
973,23235100,bastegaon,My Town,100,100,0,0
974,23218525,Lt Rhino,My Town,100,100,0,0
975,23101720,ghesdrhgwse,My Town,100,100,0,0
976,22835090,FomoGirl,FomoTown,100,100,0,0
977,22511390,TaRaDonBom,My Town,100,100,0,0
978,22459380,Bambam [GEM],My Town,100,100,0,0
979,22370960,nobkon3,My Town,100,100,0,0
980,22350320,GaganGantaro,My Town,100,100,0,0
981,22248890,Galaxian#89868214,JuBi,100,100,0,0
982,22117170,Pandg,My Town,100,100,0,0
983,22113870,Vik1103,My Town,100,100,0,0
984,21417220,EARTH4GA,My Town,100,100,0,0
985,21247040,Kosecky,My Town,100,100,0,0
986,20937260,TripleL,My Town,100,100,0,0
987,20821340,Superian,C.O.T.I,100,100,0,0
988,20572970,yj,My Town,100,100,0,0
989,20482750,WAXgame,Souksavanh,100,100,0,0
990,20476220,Techasopapan,My Town,100,100,0,0
991,20455310,TopZO,My Town,100,100,0,0
992,20442740,THANA6485,My Town,100,100,0,0
993,20358830,eeiixx,My Town,100,100,0,0
994,20324260,Gemma1404,My Town,100,100,0,0
995,20250950,Xarie,My Town,0,100,0,100
996,20148620,ASddaw,My Town,100,100,0,0
997,19675810,Cool_Shiba,My Town,100,100,0,0
998,19487430,Andertheo,My Town,100,100,0,0
999,19483440,Gobstopp,My Town,100,100,0,0
1000,19475910,hellothere,My Town,100,100,0,0
1001,19363620,Wolfgang Amadeus,My Town,100,100,0,0
1002,19357560,Mohsin7755,My Town,100,100,0,0
1003,19343380,Nostradamus,Frank96,100,100,0,0
1004,19280330,skaand,My Town,100,100,0,0
1005,19206280,balkihoo,My Town,100,100,0,0
1006,19177280,Akuminha,My Town,100,100,0,0
1007,18626290,Bulldozer13,My Town,0,100,0,100
1008,18604680,Marcelo Lobinho,My Town,100,100,0,0
1009,18589500,Derpy Kirby,My Town,100,100,0,0
1010,18499900,ALI D,My Town,100,100,0,0
1011,18483740,VirtualSciFi,My Town,100,100,0,0
1012,18359170,Ron Ranger,My Town,100,100,0,0
1013,18346260,The G,My Town,100,100,0,0
1014,18235040,Thapvilla,My Town,0,100,0,100
1015,18185450,leslie1997,My Town,100,100,0,0
1016,18177230,Jinto,My Town,100,100,0,0
1017,18127530,Paupau,My Town,100,100,0,0
1018,18116740,DeusCourse,My Town,100,100,0,0
1019,17567860,KARK,My Town,100,100,0,0
1020,17520250,Soupknife,My Town,100,100,0,0
1021,17419480,3v3nt | NLO,My Town,100,100,0,0
1022,17364010,DKFarm,My Town,100,100,0,0
1023,17237150,Trinny,My Town,100,100,0,0
1024,17222800,LBFoof,My Town,100,100,0,0
1025,17195690,JoMiAm,My Town,100,100,0,0
1026,17181980,Nakazovski,My Town,100,100,0,0
1027,16529360,Bluemoon,My Town,100,100,0,0
1028,16303030,Gandis Palabandus ,My Town,100,100,0,0
1029,16266760,13SMPM86,My Town,100,100,0,0
1030,16266070,wandererg,My Town,0,100,0,100
1031,16160740,Liana888,My Town,100,100,0,0
1032,16106250,Luciana ,My Town,100,100,0,0
1033,16022790,Trinity14,My Town,100,100,0,0
1034,15451960,Nomad Lord,My Town,0,100,0,100
1035,15323020,cleidinha1,My Town,100,100,0,0
1036,15317500,wiwiryas,My Town,100,100,0,0
1037,15241270,Ubaidullah Mahmud,My Town,100,100,0,0
1038,15232840,hi_roo,My Town,100,100,0,0
1039,15231400,applezoid,My Town,0,100,0,100
1040,15139390,BosmangDom,My Town,50,100,0,50
1041,15114850,mariacosta,My Town,100,100,0,0
1042,15102240,Very Aprihatin,My Town,100,100,0,0
1043,15059640,Aryadylan66,aryadyylan66,100,100,0,0
1044,14414910,kabakichi,My Town,100,100,0,0
1045,14400380,Ir!sh,My Town,0,100,0,100
1046,14385130,ElectronDoom,BenTown,100,100,0,0
1047,14348710,lancaster,My Town,100,100,0,0
1048,14335770,SynDaisy,My Town,100,100,0,0
1049,14311920,okwoman [GEM],My Town,100,100,0,0
1050,14286640,Skipz,My Town,0,100,0,100
1051,14269680,xulaxd,My Town,100,100,0,0
1052,14244020,Aninha [GEM],My Town,100,100,0,0
1053,14223040,Tong_Test,My Town,100,100,0,0
1054,14211070,Tayra88,My Town,100,100,0,0
1055,14174820,donfranco,My Town,100,100,0,0
1056,14164490,ukyo-dora,My Town,100,100,0,0
1057,14106240,WAG,WhackyMole,100,100,0,0
1058,13603050,Kiryu,My Town,100,100,0,0
1059,13456500,Adecitos2,My Town,100,100,0,0
1060,13295070,KolarOld,My Town,0,100,0,100
1061,13251930,Galaxian#37954676,My Town,100,100,0,0
1062,13213090,spongella,My Town,100,100,0,0
1063,13211280,-Doc-,My Town,100,100,0,0
1064,13209090,金齁勝,My Town,100,100,0,0
1065,13156830,Bidadari,My Town,100,100,0,0
1066,13142060,r2j2,My Town,0,100,0,100
1067,12433760,Nawaki,My Town,100,100,0,0
1068,12429540,lolzin.br,My Town,100,100,0,0
1069,12412470,Zurg,My Town,0,100,0,100
1070,12386220,SaeetSaeet,My Town,100,100,0,0
1071,12337100,KennethDavis,My Town,100,100,0,0
1072,12223060,conkelundefined,My Town,100,100,0,0
1073,12222760,Aboma,My Town,100,100,0,0
1074,12207110,Kilgoree,My Town,100,100,0,0
1075,12201100,Zelda,My Town,100,100,0,0
1076,12075820,GARDEN CITY,My Town,100,100,0,0
1077,11533780,soragail,My Town,100,100,0,0
1078,11483960,hebert500,My Town,100,100,0,0
1079,11463740,KhunBoom_,My Town,100,100,0,0
1080,11361980,TfcSilva,My Town,100,100,0,0
1081,11320000,nev6040a,My Town,100,100,0,0
1082,11309530,Paul Maritz [GEM],Pauly [GEM],100,100,0,0
1083,11280160,rosamondrobinson,My Town,100,100,0,0
1084,11280080,Town of Bug | TH,My Town,100,100,0,0
1085,11268090,Cheest,My Town,100,100,0,0
1086,11267490,Galaxian#35045489,My Town,100,100,0,0
1087,11252920,FuturisticGaming,My Town,100,100,0,0
1088,11247160,blackpearlwater,My Town,100,100,0,0
1089,11230520,JOZID,My Town,0,100,0,100
1090,11204480,Toadsticker,My Town,0,100,0,100
1091,11203830,YamDee21,My Town,100,100,0,0
1092,11153420,lider99t,My Town,100,100,0,0
1093,11116760,Galaxian#20346213,My Town,100,100,0,0
1094,11065190,mmmmmm2538,My Town,100,100,0,0
1095,11033120,RedThrane,My Town,100,100,0,0
1096,10844100,M1SHO,My Town,100,100,0,0
1097,10704880,Sparkle [GEM],My Town,100,100,0,0
1098,10536310,Lord Zoob,My Town,0,100,0,100
1099,10468190,Pleng0909,My Town,100,100,0,0
1100,10428310,kuro_obake,kuro_obake,0,100,0,100
1101,10420620,Jupiterz226,My Town,100,100,0,0
1102,10321110,THUNIJPA,My Town,100,100,0,0
1103,10321060,GRIFFFON,My Town,100,100,0,0
1104,10294390,Hubbard,My Town,100,100,0,0
1105,10273720,ValGeo,My Town,100,100,0,0
1106,10260130,Rip_Douma02,Rip_Douma02,100,100,0,0
1107,10257860,Waldo666,My Town,100,100,0,0
1108,10255340,bishopstanley,My Town,100,100,0,0
1109,10243740,SoMoBoK,My Town,100,100,0,0
1110,10241650,Ruzzender,My Town,100,100,0,0
1111,10206130,Bailialor,My Town,100,100,0,0
1112,10194300,Forin,My Town,0,100,0,100
1113,10079000,Sero2005,Sero2005,100,100,0,0
1114,10005900,doreenmcmillan,My Town,100,100,0,0
1115,9987190,cmetanka,My Town,100,100,0,0
1116,9702090,SGTaylor,My Town,100,100,0,0
1117,9537050,AKPP,My Town,100,100,0,0
1118,9494050,Guanyufei,My Town,100,100,0,0
1119,9375710,Mikero7,My Town,62,100,0,38
1120,9229600,Ad06,My Town,100,100,0,0
1121,9219590,vonskie,My Town,100,100,0,0
1122,9179590,Koloc,My Town,100,100,0,0
1123,9166520,Leito24,My Town,100,100,0,0
1124,9154100,pricey01,My Town,100,100,0,0
1125,9142970,PennyLane,My Town,100,100,0,0
1126,9119760,Yongzhi,My Town,100,100,0,0
1127,9109650,Динара,My,100,100,0,0
1128,9077510,R3veng3 ,My Town,100,100,0,0
1129,8607090,GlennCoco810,My Town,0,100,0,100
1130,8432700,qufei,My Town,100,100,0,0
1131,8411790,Original pringle,My Town,100,100,0,0
1132,8322450,rizla1970,My Town,100,100,0,0
1133,8259690,LeeSongPure,My Town,0,100,0,100
1134,8218300,SEREF,My Town,100,100,0,0
1135,8196290,Kemalep,My Town,100,100,0,0
1136,8184840,tangzhanglao,My Town,100,100,0,0
1137,8179970,CnMax,My Town,100,100,0,0
1138,8145310,CrawLing,My Town,100,100,0,0
1139,8138790,Andyblair2,My Town,100,100,0,0
1140,8099680,KOKORO,My Town,100,100,0,0
1141,8041000,Harlow,My Town,100,100,0,0
1142,7535710,BentoAndMeg,My Town,100,100,0,0
1143,7463310,PaoCz[GEM],PaoCz,0,100,0,100
1144,7463185,BKND1,My Town,100,100,0,0
1145,7441430,maroron,My Town,100,100,0,0
1146,7435230,zhaoyunzi,My Town,100,100,0,0
1147,7434290,fsae,My Town,100,100,0,0
1148,7421490,guozhidong,My Town,100,100,0,0
1149,7342680,blue steel,My Town,100,100,0,0
1150,7274210,Gnoss,My Town,100,100,0,0
1151,7266220,idirsun,My Town,100,100,0,0
1152,7210110,Galaxian#13,My Town,100,100,0,0
1153,7192480,Todoroki,My Town,100,100,0,0
1154,7183470,reidecaruaru,My Town,0,100,0,100
1155,7180580,santoso29,ERLAN,100,100,0,0
1156,7178680,kmg48044,My Town,100,100,0,0
1157,7170630,twoS,My Town,100,100,0,0
1158,7158065,vyiolette,My Town,100,100,0,0
1159,7149210,tbonemla,My Town,100,100,0,0
1160,7148280,Pascocrypto,My Town,0,100,0,100
1161,7140830,Adawon,My Town,100,100,0,0
1162,7129480,AdaLovelace,AdaLovelace Town,100,100,0,0
1163,7109270,RonicleudeStark,ronistark,100,100,0,0
1164,7065580,KillerKabali,My Town,100,100,0,0
1165,6856920,maxthegamer,My Town,100,100,0,0
1166,6554310,SassyChic,My Town,100,100,0,0
1167,6507750,daniflor,My Town,100,100,0,0
1168,6494130,Galaxian#70321984,My Town,100,100,0,0
1169,6430960,jheck28,My Town,100,100,0,0
1170,6375305,Viktor,My Town,100,100,0,0
1171,6338220,DTriniboy,My Town,100,100,0,0
1172,6320760,fallenangelzeus,My Town,100,100,0,0
1173,6285360,TheRedsXI,My Town,0,100,0,100
1174,6268020,Balessszzz,My Town,100,100,0,0
1175,6262040,butchik5,My Town,0,100,0,100
1176,6222500,Doommaister,My Town,100,100,0,0
1177,6170040,MokkaPlusz,My Town,100,100,0,0
1178,6150340,❖ƬʜᴇＬｏｖｅヅ,My Town,100,100,0,0
1179,6136790,Rodrigow,My Town,100,100,0,0
1180,6128300,GIGN,My Town,100,100,0,0
1181,6120120,Malachy,My Town,100,100,0,0
1182,6110620,Farmgirl,Magnolia Creek,0,100,0,100
1183,6109150,ThorSten,My Town,100,100,0,0
1184,6030380,Queen Esther,My Town,100,100,0,0
1185,5935590,Sparkie66,My Town,100,100,0,0
1186,5827300,CGNMasterOiguftGEM,CGNMasteroiguft|GEM|,100,100,0,0
1187,5776200,X@nE,My Town,100,100,0,0
1188,5694490,TDrag,My Town,100,100,0,0
1189,5571200,lewisadamson,My Town,100,100,0,0
1190,5541090,PRTown,My Town,100,100,0,0
1191,5466540,cryptovision,My Town,100,100,0,0
1192,5418030,Azhrael,,0,100,0,100
1193,5389980,Rocket Dog,My Town,100,100,0,0
1194,5346470,Vazaitsev,My Town,100,100,0,0
1195,5337340,ThEGoRkHa,My Town,100,100,0,0
1196,5320880,Jiro,My Town,100,100,0,0
1197,5316420,Bos Jangkrik,My Town,100,100,0,0
1198,5297025,Harry Wang [GEM],My Town,100,100,0,0
1199,5277790,WEI1988,My Town,100,100,0,0
1200,5273820,mercicoin007/TKG,mercicoin/TKG,0,100,0,100
