rank,stars,name,town,Reward - Total,Reward - Comp,Reward - Loyalty,Reward - Deducted
1,784568500,Amarthil,My Town,40000,40000,0,0
2,730046040,Odysseus | TSM,My Town,30000,30000,0,0
3,720214530,zbi3 | NLO,My Town,25000,25000,0,0
4,713094250,paramin | KAG,My Town,21000,21000,0,0
5,703488550,Teddy | NLO,My Town,18000,18000,0,0
6,664960850,Hello World | BTB,My Town,16000,16000,0,0
7,641204750,Aaron1050 | BTB,My Town,14500,14500,0,0
8,626180190,RAH | NLO,My Town,13000,13000,0,0
9,626079380,O-Town [DUB],O-Town [DUB],12500,12500,0,0
10,604937185,Zeebor | TSM,Z-bracelets,12000,12000,0,0
11,604924840,bearro,the cotton eye joes,11000,11000,0,0
12,600071680,D84 | NLO,D84 | NLO,11000,11000,0,0
13,580971920,Zavn,My Town,11000,11000,0,0
14,576356800,sugrrpie,My Town,11000,11000,0,0
15,569176310,Billie I TSM ,My Town,11000,11000,0,0
16,567492230,Lyom [GEM],My Town,11000,11000,0,0
17,561791675,Temujin,My Town,11000,11000,0,0
18,556462395,duFi | NLO,duFi town,11000,11000,0,0
19,538642560,SchmiddoHH,LegendarySxhxixt,11000,11000,0,0
20,528407810,Pwnisher,My Town,11000,11000,0,0
21,524288250,Mugiwara | NLO,My Town,11000,11000,0,0
22,519138660,Cristipr | NLO,My Town,11000,11000,0,0
23,518467780,CrazyTown | NLO,My Town,11000,11000,0,0
24,516043630,JJ | NLO,My Town,11000,11000,0,0
25,507883805,ntx20 [GEM],My Town,11000,11000,0,0
26,473537320,Smoogie  †TSM†,My Town,7000,7000,0,0
27,471504060,[MOB] Bazinga,My Town,7000,7000,0,0
28,468651940,Homeboy431 [GEM],My Town,7000,7000,0,0
29,462905110,Zerberfert[GEM],Zerberfert[GEM],7000,7000,0,0
30,461057475,No Free Lunch,No Free Lunch 'TSM',7000,7000,0,0
31,450440700,xWARtown | NLO,My Town,7000,7000,0,0
32,448912590,TyroneCPA l NLO,My Town,7000,7000,0,0
33,444532760,FranceTSD [GEM],My Town,7000,7000,0,0
34,436921620,skibob20,My Town,7000,7000,0,0
35,430171470,BMW Competition ,Zzz,7000,7000,0,0
36,423147010,Wineryk | NLO,My Town,7000,7000,0,0
37,417739650,Anderain [GEM],Anderain [GEM],7000,7000,0,0
38,416094280,Pixie [GEM],Pixie [GEM],7000,7000,0,0
39,415305950,Poison | NLO,My Town,7000,7000,0,0
40,411943210,TANTRUM[GEM],TANTRUM[GEM],7000,7000,0,0
41,406776795,쿠이신보,My Town,7000,7000,0,0
42,398368870,MixedBagONutz,My Town,7000,7000,0,0
43,393667170,Aku | BTB,My Town,7000,7000,0,0
44,384180980,PizzaPuck,Puckville,7000,7000,0,0
45,384138250,Rimizak,My Town,7000,7000,0,0
46,380321300,L0nely Island +TSM+,L0nely Island | TSM,7000,7000,0,0
47,380302525,Jo3 Bubbles [GEM],Jo3 Bubbles [GEM],7000,7000,0,0
48,377073300,Jedy,My Town,7000,7000,0,0
49,376826925,Oizys | NLO,Oizys | NLO,7000,7000,0,0
50,372550290,Quixotic,My Town,7000,7000,0,0
51,372177300,eatyluggs | TSM,eatyluggs | TSM |,3500,3500,0,0
52,371609900,parasshot [GEM],My Town,3500,3500,0,0
53,371126270,Beta | 007,My Town,3500,3500,0,0
54,370660100,Xwarr | NLO ,My Town,3500,3500,0,0
55,370135375,PlanetBob,DisTownpia,3500,3500,0,0
56,369682600,Nice)))) |NLO,My Town,3500,3500,0,0
57,368684210,ilysha111ew | NLO,My Town,3500,3500,0,0
58,366767500,Mois,My Town,3500,3500,0,0
59,365615750,zek | TSM,My Town,3500,3500,0,0
60,361031030,Dru PH,My Town,3500,3500,0,0
61,360057555,Cubby | HVN,My Town,3500,3500,0,0
62,358128160,OBA GL,My Town,3500,3500,0,0
63,357634155,LIMCOIN1[GEM],My Town,3500,3500,0,0
64,357254670,Tickles | BTB,TruckTonka,3500,3500,0,0
65,357188680,Lexell | NLO,My Town,3500,3500,0,0
66,356203500,ikelobana,My Town,3500,3500,0,0
67,355476190,NOM | TSM,My Town,3500,3500,0,0
68,354390180,Madness | NLO,My Town,3500,3500,0,0
69,354269640,GantenOS [DUB],My Town,3500,3500,0,0
70,353353720,Coffeebean[GEM],Coffeebean[GEM],3500,3500,0,0
71,353330110,BlueN,My Town,3500,3500,0,0
72,352927390,Giggles | BTB,Giggles,3500,3500,0,0
73,352434380,[MOB] NickelApex,My Town,3500,3500,0,0
74,350459455,Townstar2L2T,My Town,3500,3500,0,0
75,347156630,BrentL,My Town,3500,3500,0,0
76,344705070,T911,My Town,3500,3500,0,0
77,343773540,Goejung,My Town,3500,3500,0,0
78,343750970,Huge,My Town,3500,3500,0,0
79,343750650,TimKiller | NLO,My Town,3500,3500,0,0
80,342854150,Lazy Lumberjack,Lazy Lumberjack,3500,3500,0,0
81,342799560,Buayjung,My Town,3500,3500,0,0
82,342770860,LightningSaviouR,My Town,3500,3500,0,0
83,342769820,mostewasa,My Town,3500,3500,0,0
84,341801850,SandK!ng | NLO,My Town,3500,3500,0,0
85,341175010,DubstepRod,DubstepRod [DUB],3500,3500,0,0
86,339956100,Jamin156,My Town,3500,3500,0,0
87,338947330,SandQueen | NLO,My Town,3500,3500,0,0
88,338934790,kertedawe,My Town,3500,3500,0,0
89,338914570,Giftchie[GEM],My Town,3500,3500,0,0
90,338002860,Yui888 [GEM],Yui888 [GEM],3500,3500,0,0
91,337035690,PuYn [GEM],My Town,3500,3500,0,0
92,333820010,Vulture | NLO,Vulture | NLO,3500,3500,0,0
93,333144450,FantasiaSu,My Town,3500,3500,0,0
94,332257760,Thaimachine | mune online,My Town,3500,3500,0,0
95,332218240,I_Here_Too [GEM],My Town,3500,3500,0,0
96,332202790,Grem_Lin | NLO,My Town,3500,3500,0,0
97,331367070,mClassiC[GEM],My Town,3500,3500,0,0
98,331255720,Artuxas,My Town,3500,3500,0,0
99,329353100,PearyDigiArts,My Town,3500,3500,0,0
100,328439700,JACK.THC [GEM],My Town,3500,3500,0,0
101,327637300,xG,My Town,1400,1400,0,0
102,326496870,Boruske 09 [GEM],Boruske09[GEM],1400,1400,0,0
103,326464670,Gripp | NLO,My Town,1400,1400,0,0
104,326447765,Mr.Robotto [GEM],My Town,1400,1400,0,0
105,325513080,Battosai[GEM],My Town,1400,1400,0,0
106,325084025,TripleL,My Town,1400,1400,0,0
107,324582290,DefiniteGJ,DefiniteGJ [DUB],1400,1400,0,0
108,323578300,Astroblade,My Town,1400,1400,0,0
109,322606520,Bang Iyan,Bang Iyan,1400,1400,0,0
110,321832495,townstarplayer3,sure not my town,1400,1400,0,0
111,319760000,Irod,My Town,1400,1400,0,0
112,319328140,Coordinator | BTB,My Town,1400,1400,0,0
113,317838450,Traktor,My Town,1400,1400,0,0
114,317028920,Sabrosito,My Town,1400,1400,0,0
115,316838800,Dareb,My Town,1400,1400,0,0
116,316810080,Jestonyr,My Town,1400,1400,0,0
117,315610275,fatamorgana,fata.mor.gana | NLO,1400,1400,0,0
118,315047130,The Captain [MOB],My Town,1400,1400,0,0
119,314960280,Ruca777,Jeweler Ruca | NLO,1400,1400,0,0
120,314003670,eddieha,My Town,1400,1400,0,0
121,313964490,IceWaffle [GEM],My Town,1400,1400,0,0
122,312121450,[MOB] Coinman,No more Jewelry,1400,1400,0,0
123,312080580,MaDukery |NLO,My Town,1400,1400,0,0
124,311118690,13SMPM86,My Town,1400,1400,0,0
125,310182850,Urt Salot,UrtSalot,1400,1400,0,0
126,310141260,G3LFace,My Town,1400,1400,0,0
127,309189830,Lioness21,My Town,1400,1400,0,0
128,309175445,iagotk,My Town,1400,1400,0,0
129,308228350,[GEM]Cvu,My Town,1400,1400,0,0
130,307291010,dr.hegi,My Town,1400,1400,0,0
131,305352090,shurik,My Town,1400,1400,0,0
132,301809660,ghaji,My Town,1400,1400,0,0
133,301594120,Shihab | BTB,My Town,1400,1400,0,0
134,301512120,micheal,My Town,1400,1400,0,0
135,301479230,OmnisLacrima,My Town,1400,1400,0,0
136,301474840,LikeToba,My Town,1400,1400,0,0
137,301474820,Vein [GEM],My Town,1400,1400,0,0
138,300567160,sameeh1,My Town,1400,1400,0,0
139,300542390,Dashahere,My Town,1400,1400,0,0
140,300517960,Barerro | NLO,My Town,1400,1400,0,0
141,300494380,Arcobaleno.v1,My Town,1400,1400,0,0
142,298675360,ZOSO,ZOSO [DUB],1400,1400,0,0
143,298651590,boniaier,My Town,1400,1400,0,0
144,298636930,杰克逊,My Town,1400,1400,0,0
145,298599570,Nomad I NLO,My Town,1400,1400,0,0
146,298569900,mnhjk8755,My Town 2,1400,1400,0,0
147,298253740,Feoria|HVN,My Town,1400,1400,0,0
148,297834970,Burgundy I Ron,My Town,1400,1400,0,0
149,297673120,Harley Quiin,My Town,1400,1400,0,0
150,297668640,bheng_akoto[GEM],bheng_akoto[GEM],1400,1400,0,0
151,297657840,KhuongHuynh,My Town,1400,1400,0,0
152,297649955,R@w,My Town,1400,1400,0,0
153,296713420,JNC.,My Town,1400,1400,0,0
154,295746740,zhamrock[GEM],zhamrock[GEM],1400,1400,0,0
155,295743640,TAV2610,My Town,1400,1400,0,0
156,294731450,opeth,My Town 1,1400,1400,0,0
157,294718880,MOKOCH/TKG,My Town,1400,1400,0,0
158,294412135,bwales,My Town,1400,1400,0,0
159,294102370,Fria,Engineearring,1400,1400,0,0
160,294096890,Remaaz,My Town,1400,1400,0,0
161,293833940,ejoy,My Town,1400,1400,0,0
162,293831120,LordZel,LordZel,1400,1400,0,0
163,292866340,banton,My Town,1400,1400,0,0
164,292865100,SAMSON | NLO,My Town,1400,1400,0,0
165,292861290,faker1998,My Town,1400,1400,0,0
166,292851870,SilverZero,My Town,1400,1400,0,0
167,292849600,Bossamy[GEM],My Town,1400,1400,0,0
168,292802340,dnffhjk,My Town 3,1400,1400,0,0
169,291952640,mad0me[GEM],My Town,1400,1400,0,0
170,291902030,Gloomster [GEM],Gloomster [GEM],1400,1400,0,0
171,291899860,Kel | NLO,My Town,1400,1400,0,0
172,291897480,iamWiam,My Town,1400,1400,0,0
173,291878860,Jiddan39,My Town,1400,1400,0,0
174,291514490,Hiiko,My Town,1400,1400,0,0
175,290928620,BlackOrca [GEM],My Town,1400,1400,0,0
176,290013320,ukirara,My Town,1400,1400,0,0
177,289024040,minuta,minuta,1400,1400,0,0
178,288184210,CGN|MasterOiguft|GEM,CGN|Master0iguft|GEM,1400,1400,0,0
179,288119760,TownStar[GEM],My Town,1400,1400,0,0
180,288090660,[GEM] eminem pkc,My Town,1400,1400,0,0
181,288061860,KingJerky,My Town,1400,1400,0,0
182,288054720,duy cau giay,My Town,1400,1400,0,0
183,287201980,ppejrak6,rak6 [DUB],1400,1400,0,0
184,287196160,MR P,MR P,1400,1400,0,0
185,287158280,KryptoHunt,My Town,1400,1400,0,0
186,287117260,Grinder-2,My Town,1400,1400,0,0
187,287115640,Fernando Iannilli,My Town,1400,1400,0,0
188,287104560,Ja1me,My Town,1400,1400,0,0
189,287090420,Luis Gonzo,My Town,1400,1400,0,0
190,287084140,DigDin,My Town,1400,1400,0,0
191,286194110,Valdas,Valdas,1400,1400,0,0
192,286174530,[GEM] ruler galaxy,My Town,1400,1400,0,0
193,286167130,MarcioJustin,My Town,1400,1400,0,0
194,286165370,Delano_PB,DelanoPB [GEM],1400,1400,0,0
195,286155080,tokuda,My Town,1400,1400,0,0
196,285198050,Bolacha [GEM],Selada,1400,1400,0,0
197,285185520,AdecitoS,My Town,1400,1400,0,0
198,285155560,Thooa,My Town,1400,1400,0,0
199,284270580,Thienvy,My Town,1400,1400,0,0
200,284261930,VirusRaYum,My Town,1400,1400,0,0
201,284239020,Lildude3107,My Town,1400,1400,0,0
202,284234580,funkysmell,My Town,1400,1400,0,0
203,284219070,Kroom,My Town,1400,1400,0,0
204,283593290,lmou,My Town,1400,1400,0,0
205,283293880,[GEM]  shendo sharinga,My Town,1400,1400,0,0
206,283286620,gigel,My Town,1400,1400,0,0
207,283273780,Nemo420,DRZ,1400,1400,0,0
208,283125350,Tomski_BBfA,My Town,1400,1400,0,0
209,282323300,WhitEFanG,My Town,1400,1400,0,0
210,282275610,ZuX,My Town,1400,1400,0,0
211,281363870,Chillarn,My Town,1400,1400,0,0
212,281329140,Ricola,My Town,1400,1400,0,0
213,281033345,[MOB] Goda,My Town,1400,1400,0,0
214,280974880,Magic | BTB,My Town,1400,1400,0,0
215,280869070,007 [MOB],[MOB]Wen Next Meta?,1400,1400,0,0
216,280489320,Xyloid,My Town,1400,1400,0,0
217,280451030,Arckatec,My Town,1400,1400,0,0
218,280414700,Hurps,My Town,1400,1400,0,0
219,280400480,TUFTOR,My Town,1400,1400,0,0
220,280398240,tiki ozawa,My Town,1400,1400,0,0
221,280394330,vishty,My Town,1400,1400,0,0
222,279520190,XEON | HVN,My Town,1400,1400,0,0
223,279489670,GMasterVlad | KAG,My Town,1400,1400,0,0
224,278507090,VigilantTen,My Town,1400,1400,0,0
225,278467800,Vertabine | NLO,Vertabine | NLO,1400,1400,0,0
226,278461310,AzazelZ,My Town,500,500,0,0
227,278166060,Seawolf,My Town,500,500,0,0
228,277516910,Rayville,My Town,500,500,0,0
229,277032360,gandralfthegrey,gandralf [GEM],500,500,0,0
230,276566640,Said | NLO,My Town,500,500,0,0
231,276548190,alen.nongradi,My Town,500,500,0,0
232,276546320,Opszyk,My Town,500,500,0,0
233,276150765,FomoGirl,FomoTown,500,500,0,0
234,276095280,Oxy [GEM],Oxy [GEM],500,500,0,0
235,275928950,NFT Dropz [GEM],NFT Dropz [GEM],500,500,0,0
236,275591830,여신 <3,My Town,500,500,0,0
237,274692120,ZRosaN,My Town,500,500,0,0
238,273716470,Pure86,My Town,500,500,0,0
239,273654600,Rahif [DUB],Rahif [DUB],500,500,0,0
240,272820160,Bali90,My Town,500,500,0,0
241,272761710,NFT_Hunter [GEM] | TH,My Town,500,500,0,0
242,272742430,Adylos | NLO,My Town,500,500,0,0
243,272700180,cornel [GEM],cornel,500,500,0,0
244,271750210,MMEE,My Town,500,500,0,0
245,270811490,Jamfran l TSM,My Town,500,500,0,0
246,270805370,Siavash,My Town,500,500,0,0
247,270805250,Paul_,My Town,500,500,0,0
248,270787350,_ItsMeFrank_,[MOB] ItsMeFrank,500,500,0,0
249,270777770,AVF2011 | NLO,AVF2011 | NLO,500,500,0,0
250,270758620,serkangp,My Town,500,500,0,0
251,269871570,Rog [GEM],My Town,500,500,0,0
252,269867140,Fama,My Town,500,500,0,0
253,269850370,Maynne,My Town,500,500,0,0
254,269817330,ECOpray,My Town,500,500,0,0
255,268896700,Kitabe,My Town,500,500,0,0
256,267899910,FatLo[GEM],My Town,500,500,0,0
257,267056610,Guillermoville,My Town,500,500,0,0
258,267001290,Galataki,My Town,500,500,0,0
259,266973080,ives715,My Town,500,500,0,0
260,266034440,UltimateAcid,My Town,500,500,0,0
261,266027710,PomPomPom | BTB,BlingChilling2.0,500,500,0,0
262,264145530,stsdmchv,meomeek | NLO,500,500,0,0
263,264106410,Team Gala Storm,My Town,500,500,0,0
264,264104420,BengxBeng [GEM],My Town,500,500,0,0
265,262200850,Yin [GEM],Yin [GEM],500,500,0,0
266,262157530,Jonystar,My Town,500,500,0,0
267,261161490,CottonCheeseCake,My Town,500,500,0,0
268,260320455,PewPewTurret,Pewpewturret [GEM],500,500,0,0
269,260278020,Redfox78 [DUB],My Town,500,500,0,0
270,260254410,leslie1997,My Town,500,500,0,0
271,260223010,Moriali [GEM],Moriali [GEM],500,500,0,0
272,259149670,Livetoplay,My Town,500,500,0,0
273,258643930,mWallon †TSM†,My Town,500,500,0,0
274,258419660,Pocari,My Town,500,500,0,0
275,257370790,volam,My Town,500,500,0,0
276,256989580,RassilonRaver,My Town,500,500,0,0
277,256466890,M1SHO,My Town,500,500,0,0
278,256385910,Dqwer,My Town,500,500,0,0
279,255952620,[GEM] Griffey,My Town,500,500,0,0
280,255446770,skin walker ranch,My Town,500,500,0,0
281,255438880,Iuda,My Town,500,500,0,0
282,255433060,Cirey,My Town,500,500,0,0
283,255418600,NAKADAVI-TGS ,My Town,500,500,0,0
284,255085830,-Ssa-,My Town,500,500,0,0
285,254962290,HoaChien,My Town,500,500,0,0
286,254551580,sashas,My Town,500,500,0,0
287,254540900,Everton K. [GEM],My Town,500,500,0,0
288,254525250,Zanini197,Zanini CZ,500,500,0,0
289,254511390,DrShadows,My Town,500,500,0,0
290,254510290,FustMax I NLO,My Town,500,500,0,0
291,254480010,Spunkfire,My Town,500,500,0,0
292,253580290,Aisalsan,My Town,500,500,0,0
293,253517120,Santofla,My Town,500,500,0,0
294,252625170,COUCOU4,My Town,500,500,0,0
295,252610795,Pickleball [GEM],Pickleball,500,500,0,0
296,251583000,Vogue_,My Town,500,500,0,0
297,251582930,Panda | LWG,My Town,500,500,0,0
298,251553940,HariBaik,HariBaik,500,500,0,0
299,250751570,myzlabo,My Town,500,500,0,0
300,250674330,Kaif0naft TSM,kaifonaft | tsm,500,500,0,0
301,250670230,birdman545,The 2x,500,500,0,0
302,250631240,Canfura,My Town,500,500,0,0
303,249690060,mmmmmm2538,My Town,500,500,0,0
304,248757160,omergokmen,My Town,500,500,0,0
305,248746200,cjgamer,My Town,500,500,0,0
306,248715180,Delta Nine Club,My Town,500,500,0,0
307,247786470,anna_vip,My Town,500,500,0,0
308,247778770,Cundestroyer [GEM],My Town,500,500,0,0
309,247737530,maple09,My Town,500,500,0,0
310,246823420,Placeholder,rugpull technology,500,500,0,0
311,246790475,LVPostman TSM,Sour Milk,500,500,0,0
312,246782590,KarnWalker,My Town,500,500,0,0
313,245949270,CGN|citizenX[GEM],Not My Town,500,500,0,0
314,245896770,MrTroopart,MrTroopart,500,500,0,0
315,245824990,Propoupan [GEM],MOHI,500,500,0,0
316,245056700,pulsesilver,My Town,500,500,0,0
317,245007220,justicero,My Town,500,500,0,0
318,244932540,Dugbo,Dugbo[DUB],500,500,0,0
319,244928950,Coco2510,Cocoville,500,500,0,0
320,244899800,XxJhomzxX,My Town,500,500,0,0
321,244861340,chant [GEM],My Town,500,500,0,0
322,244195160,Max Powah,My Town,500,500,0,0
323,244189610,KL26,My Town,500,500,0,0
324,244111300,Alavana,Grasmere,500,500,0,0
325,244037490,Hordak,My Town,500,500,0,0
326,244008200,CRYPTODUDE | LWG,CRYPTODUDE | LWG,500,500,0,0
327,243951940,Maribela,My Town,500,500,0,0
328,243951910,Limon | NLO,My Town,500,500,0,0
329,243914770,Gobliano,My Town,500,500,0,0
330,242995530,A_Lonely_Joke,Brooito18,500,500,0,0
331,242461830,Jackous,Towntopolis,500,500,0,0
332,242166390,Sparkie66,My Town,500,500,0,0
333,241071420,Cowgir82,Bracelets Ine,500,500,0,0
334,241058930,LecoStar ,My Town,500,500,0,0
335,240977490,arlei-GEM,My Town,500,500,0,0
336,240118680,Dancof,My Town,500,500,0,0
337,240110480,hlinhvlog,Nico Robin,500,500,0,0
338,240103700,Honorbound,My Town,500,500,0,0
339,239181780,Dartisari,My Town,500,500,0,0
340,239171640,Pixel Pulse,Pixel,500,500,0,0
341,239111900,Reese Irish [GEM],Fart Town,500,500,0,0
342,239087490,GaLant,My Town,500,500,0,0
343,239085100,Jamirah,My Town,500,500,0,0
344,238229960,kimdown | NLO,My Town,500,500,0,0
345,238192200,LeroyJenkins,My Town,500,500,0,0
346,237278130,Lema,My Town,500,500,0,0
347,236270430,Hortelita,Estrela Guia [EDC],500,500,0,0
348,236227370,Surefire[GEM],My Town,500,500,0,0
349,236221700,TPS[GEM],My Town,500,500,0,0
350,235271990,Wemade,My Town,500,500,0,0
351,235257000,Guts ,My Town,500,500,0,0
352,234378360,Bovinski,Jinxme27,500,500,0,0
353,234334890,Cool_Shiba,My Town,500,500,0,0
354,234328110,tangzhanglao,My Town,500,500,0,0
355,234081080,[MOB]BilzeBoB87,My Town,500,500,0,0
356,233422060,Galaxian#02123773,My Town,500,500,0,0
357,233350610,Poiozinho,My Town,500,500,0,0
358,233037820,Bunditeee,My Town,500,500,0,0
359,232477510,okwoman [GEM],My Town,500,500,0,0
360,232471470,rzkyJR,My Town,500,500,0,0
361,232431720,Tronokharca,My Town,500,500,0,0
362,232410010,microcap,My Town,500,500,0,0
363,232409350,Sim_peaches,My Town,500,500,0,0
364,231658440,Tinna444 TSM,My Town,500,500,0,0
365,231569590,PRTown,My Town,500,500,0,0
366,231524970,Alucane,My Town,500,500,0,0
367,231405700,Pepsikolnyi,My Town,500,500,0,0
368,231402530,Het,My Town,500,500,0,0
369,231090040,Pharoog,My Town,500,500,0,0
370,230534250,Sartek,My Town,500,500,0,0
371,230453090,Hanpog,My Town,500,500,0,0
372,230447640,PuzatiK,My Town,500,500,0,0
373,229661650,MrPottyMouth †TSM†,My Town,500,500,0,0
374,229579770,PagahDOL,My Town,500,500,0,0
375,229524980,bosa001 [GEM],My Town,500,500,0,0
376,229505460,AmanraPolaris,Amaranth,500,500,0,0
377,229488440,diesel34,My Town,500,500,0,0
378,229480610,Revan,My Town,500,500,0,0
379,228585040,SpongeRob,SpongeR,500,500,0,0
380,228543080,GabbihNaldo,My Town,500,500,0,0
381,228539350,raylsonT26 [GEM],My Town,500,500,0,0
382,228530230,pipinovo,My Town,500,500,0,0
383,228522000,SavvyReaL,SavvyReaL,500,500,0,0
384,228490350,Tairunit,My Town,500,500,0,0
385,228295240,! W1nn1e !,My Town,500,500,0,0
386,228122490,Alexasd,My Town,500,500,0,0
387,228089790,mijmij I NLO,My Town,500,500,0,0
388,227609870,leandrin,My Town,500,500,0,0
389,227573590,SiL,My Town,500,500,0,0
390,227553950,Ackland,My Town,500,500,0,0
391,227529030,schechdelo,My Town,500,500,0,0
392,226762510,Bradlog07,My Town,500,500,0,0
393,226685020,ReD | NLO_R,My Town,500,500,0,0
394,226629450,w1nryyy,My Town,500,500,0,0
395,226626700,Estrela[EDC],ESTRELA DA CIDADE,500,500,0,0
396,226581410,PatowSaints,My Town,500,500,0,0
397,225725540,sinsins,My Town,500,500,0,0
398,225722660,Ruancv,My Town,500,500,0,0
399,225706080,Fogmax | NLO,My Town,500,500,0,0
400,225674750,antonio.m,My Town,500,500,0,0
401,225672570,Shapovalov999,My Town,250,250,0,0
402,225641710,LAEL,My Town,250,250,0,0
403,225119870,DAD21,My Town,250,250,0,0
404,224774560,digaosoueu,My Town,250,250,0,0
405,224733130,LekoNFT,My Town,250,250,0,0
406,224712220,DeaD| TGS,My Town,250,250,0,0
407,224693150,LifeGood,My Town,250,250,0,0
408,224668750,Mangga Manggo,Mangga Manggo,250,250,0,0
409,224365560,Tongyan,My Town,250,250,0,0
410,223824970,kaptenXblack,My Town,250,250,0,0
411,223791600,Natalechkaplus,My Town,250,250,0,0
412,223785470,Irina P,Reischach,250,250,0,0
413,223755880,CamCoin20,CamCoin20 | LWG,250,250,0,0
414,223734300,DrunkenDonut,My Town,250,250,0,0
415,223726850,NKschamp,My Town,250,250,0,0
416,223604720,Digifarmer,My Town,250,250,0,0
417,223139050,Niksmom,My Town,250,250,0,0
418,222794380,Barathaum[GEM],My Town,250,250,0,0
419,222439470,KATYA,My Town,250,250,0,0
420,222055970,T | J,T|J,250,250,0,0
421,221947970,ClaudiuGabriel,CG Town,250,250,0,0
422,221911860,Secuchi,My Town,250,250,0,0
423,221903020,weicissy,My Town,250,250,0,0
424,221891180,no30dy,My Town,250,250,0,0
425,221857830,Neamtzu23,Lovrin,250,250,0,0
426,221849740,Pb2,My Town,250,250,0,0
427,221836740,Suttida,My Town,250,250,0,0
428,221826500,zMariano,My Town,250,250,0,0
429,220879010,EnemyOfYours,My Town,250,250,0,0
430,220862390,Miron2019,My Town,250,250,0,0
431,220834520,LeMona,My Town,250,250,0,0
432,220090830,Delirium_,My Town,250,250,0,0
433,220034290,schisti,My Town,250,250,0,0
434,219985180,DaYz,My Town,250,250,0,0
435,219943010,[GEM] k4el,My Town,250,250,0,0
436,219886800,Jozef_Orce,My Town,250,250,0,0
437,219008700,Tyzor,My Town,250,250,0,0
438,218988980,olena8,My Town,250,250,0,0
439,218976160,The Daniel Jackson,Stormymix | BTB,250,250,0,0
440,218925880,Maro Panda,My Town,250,250,0,0
441,218159180,Dihusky †TSM†,My Town,250,250,0,0
442,218134140,TownBuilders,My Town,250,250,0,0
443,217972520,Eduardosales,My Town,250,250,0,0
444,217218140,Kenny A [DUB],BlinkCity,250,250,0,0
445,217105560,WARRIOR-711,My Town,250,250,0,0
446,217077630,Dark Majik TSM,My Town,250,250,0,0
447,217010230,Meikarta,My Town,250,250,0,0
448,216991410,Bang_dhede,Bang_dhede,250,250,0,0
449,216230270,WillowMartin,My Town,250,250,0,0
450,216202560,Athena [GEM],Athena [GEM],250,250,0,0
451,216135400,gyjmo4-cisqyf-saTzej,My Town,250,250,0,0
452,216077820,Yoda ,My Town,250,250,0,0
453,216075680,Loneli,My Town,250,250,0,0
454,216071910,vegetto_lv4,Vegetto_lv4 Town,250,250,0,0
455,216045590,Fact#3893_gg,My Town,250,250,0,0
456,215254210,Galaxian#46538425,My Town,250,250,0,0
457,215209410,[R] Tri | VN,My Town,250,250,0,0
458,215180910,bike4sail [GEM],My Town,250,250,0,0
459,215136050,ateRNEveN,My Town,250,250,0,0
460,215128580,dansmm,My Town,250,250,0,0
461,215094960,katy_qwerty_gg,My Town,250,250,0,0
462,214246050,puff,My Town,250,250,0,0
463,214160910,Drasa,My Town,250,250,0,0
464,214152535,Jordan [GEM],My Town,250,250,0,0
465,214151820,Fen!x | NLO,My Town,250,250,0,0
466,214138300,lanos999_gg,My Town,250,250,0,0
467,214135780,GabbihSantuus,My Town,250,250,0,0
468,213328990,COISA,My Town,250,250,0,0
469,213246830,ZRoch,My Town,250,250,0,0
470,213235650,Tippo1,My Town,250,250,0,0
471,213208830,VlaD Braza (PoF),My Town,250,250,0,0
472,213197370,FURiOUS [DUB],My Town,250,250,0,0
473,213194400,JuxiesT,JuxiesT,250,250,0,0
474,213193010,Toxicc,My Town,250,250,0,0
475,213184660,MuskokaMike GEM,My Town,250,250,0,0
476,213182200,khrine22,Kungkong,250,250,0,0
477,213175730,Bali.DangKhoi,My Town,250,250,0,0
478,213163950,UltraSonico,My Town,250,250,0,0
479,213158960,Kadiland,My Town,250,250,0,0
480,213137490,NewSwitch,My Town,250,250,0,0
481,213066300,XerxeS,My Town,250,250,0,0
482,213052220,Vien1915,My Town,250,250,0,0
483,213010430,Drcrypto13,My Town,250,250,0,0
484,212371150,Iceman69,My Town,250,250,0,0
485,212355240,DC001,My Town,250,250,0,0
486,212261390,CarrotTheCaptain,My Town,250,250,0,0
487,212255480,Aboma,My Town,250,250,0,0
488,212235200,hebraiko,My Town,250,250,0,0
489,212220050,nghiagn,My Town,250,250,0,0
490,212214700,ioannes(DBAD),My Town,250,250,0,0
491,212214160,Little Nancy,My Town,250,250,0,0
492,212204450,Bomberman_DF,My Town,250,250,0,0
493,211412340,TILLYSTER,My Town,250,250,0,0
494,211399020,Rapi,My Town,250,250,0,0
495,211361800,ColdRoot | NLO,ColdRoot | NLO,250,250,0,0
496,211314325,Mentallica,My Town,250,250,0,0
497,211308980,Listone,My Town,250,250,0,0
498,211296260,Markoff3001,My Town,250,250,0,0
499,211285270,skif42,My Town,250,250,0,0
500,211270710,AlexanderPolli,blablacity,250,250,0,0
501,211260640,Winnuber1,My Town,250,250,0,0
502,211255100,elith65,My Town,250,250,0,0
503,210489910,Emo Hero,My Town,250,250,0,0
504,210389760,Lupuspupus,My Town,250,250,0,0
505,210344660,Matti120,My Town,250,250,0,0
506,210323780,juliane,My Town,250,250,0,0
507,210317160,lOdkl,My Town,250,250,0,0
508,210302120,olezhkou_gg,My Town,250,250,0,0
509,210298270,Crumbee,Crumbee,250,250,0,0
510,210296150,sheva777,My Town,250,250,0,0
511,210280980,Leonardo987,My Town,250,250,0,0
512,210149270,couchpotato,My Town,250,250,0,0
513,209428970,Pixie Dust | NLO,Pixie Dust | NLO,250,250,0,0
514,209417070,Deathbringr,My Town,250,250,0,0
515,209410850,Hajmamal,Hajmamal,250,250,0,0
516,209343360,number333,My Town,250,250,0,0
517,209326340,Nunter,My Town,250,250,0,0
518,209097570,9am7 louz | BTB,My Town,250,250,0,0
519,209075460,wardus,My Town,250,250,0,0
520,208457630,Town of Bug | TH,My Town,250,250,0,0
521,208439570,zsuzsigregor,My Town,250,250,0,0
522,208396910,arsenalbd91,My Town,250,250,0,0
523,208379160,shonthon,My Town,250,250,0,0
524,208378020,Coortezzz_gg,My Town,250,250,0,0
525,208359780,CAST XD,My Town,250,250,0,0
526,208116230,NatesRekt,My Town,250,250,0,0
527,208108930,Slyverine[GEM],Slyverine[GEM],250,250,0,0
528,207485820,Napster79,My Town,250,250,0,0
529,207450560,Kezef,My Town,250,250,0,0
530,207444330,Hornigold,My Town,250,250,0,0
531,207411870,s6sense,My Town,250,250,0,0
532,207382600,SZ002146,My Town,250,250,0,0
533,207096060,sagi,My Town,250,250,0,0
534,206490380,Life,My Town,250,250,0,0
535,206464690,Galaxian#00424213,My Town,250,250,0,0
536,206452700,ChatOFF,My Town,250,250,0,0
537,206437130,Kirnev_25,My Town,250,250,0,0
538,205586560,SoulShoT,My Town,250,250,0,0
539,205561690,jaeko TV | HVN,jaeko TV | HVN,250,250,0,0
540,205501190,Vivel,My Town,250,250,0,0
541,205487290,munipal,My Town,250,250,0,0
542,205178770,Kanaconda,Profanity,250,250,0,0
543,204748990,JTDragon76,My Town,250,250,0,0
544,204697490,Luque_o,My Town,250,250,0,0
545,204666480, ☆☬MeGa_7☬☆,My Town,250,250,0,0
546,204626030,husrevunal,My Town,250,250,0,0
547,204586510,Yuudachi,My Town,250,250,0,0
548,204564790,AlexMaria,My Town,250,250,0,0
549,204561720,PortelesNFT,My Town,250,250,0,0
550,204556260,Zubarev_gg,My Town,250,250,0,0
551,204551720,ElNiño,My Town,250,250,0,0
552,204542870,Galaxian#03343231,My Town,250,250,0,0
553,204541630,PassOne,My Town,250,250,0,0
554,204533570,Galaxian#80872219,My Town,250,250,0,0
555,203730720,M8TE_,My Place,250,250,0,0
556,203669200,idoy [GEM],My Town,250,250,0,0
557,203656070,Galaxian#31575329,My Town,250,250,0,0
558,203650450,Rock Star [GEM],My Town,250,250,0,0
559,203649270,Wakko,My Town,250,250,0,0
560,203570350,margaret38,My Town,250,250,0,0
561,203562270,AL | Coki,My Town,250,250,0,0
562,203549060,Rambutan Masam,Rambutan Masam,250,250,0,0
563,203199000,Baytoac,My Town,250,250,0,0
564,203163420,[GEM] Kensin,My Town,250,250,0,0
565,202668590,Love of my Life,My Town,250,250,0,0
566,202657450,Birrique [GEM],My Town,250,250,0,0
567,202652020,Jagermeister_gg,My Town,250,250,0,0
568,202635300,Romario77737,Rome,250,250,0,0
569,202618900,MALI (POF),My Town,250,250,0,0
570,202065890,Itsuka,My Town,250,250,0,0
571,201810560,Tokolosh [GEM],My Town,250,250,0,0
572,201804940,Qbert,My Town,250,250,0,0
573,201731330,Dr04Gaming,My Town,250,250,0,0
574,201730870,sintzone,My Town,250,250,0,0
575,201717570,Makesss,My Town,250,250,0,0
576,201688360,Jeffyjazz,My Town,250,250,0,0
577,201673000,MiaKa,My Town,250,250,0,0
578,201670850,Th3drey,My Town,250,250,0,0
579,201669650,laura54,My Town,250,250,0,0
580,201662510,Adecitos2,My Town,250,250,0,0
581,201630770,dry1688168,My Town,250,250,0,0
582,201091870,SIIgamemaster,My Town,250,250,0,0
583,200816100,Fortnight,My Town,250,250,0,0
584,200770420,PockySanDee,My Town,250,250,0,0
585,200748420,dale105,My Town,250,250,0,0
586,200743120,Tavi Octavian,My Town,250,250,0,0
587,200715020,Debora Moraes,My Town,250,250,0,0
588,200713580,Shantyka,My Town,250,250,0,0
589,200684540,djdigsut,My Town,250,250,0,0
590,200677660,bg_dhee2,bg_dhee2,250,250,0,0
591,200071720,Xenasandra,My Town,250,250,0,0
592,199868190,Wolf7,Villa Luz,250,250,0,0
593,199804640,Carva,Carva Farm,250,250,0,0
594,199729580,Kama05,My Town,250,250,0,0
595,199132810,lucky999,My Town,250,250,0,0
596,199064260,Queen0042,My Town,250,250,0,0
597,198918560,Tragtur,My Town,250,250,0,0
598,198868190,Dungeon Monster,My Town,250,250,0,0
599,198838400,Freakzilla,My Town,250,250,0,0
600,198835530,Loading96,L0ad1ng | NTM,250,250,0,0
601,198820970,Icedbox,Icedbox,150,150,0,0
602,198794860,Katecrazy,My Town,150,150,0,0
603,198750650,kiril168,My Town,150,150,0,0
604,197981980,SNM21,My Town,150,150,0,0
605,197887420,Sinnn,My Town,150,150,0,0
606,197870800,Hypocrisya,My Town,150,150,0,0
607,197864720,DPRoberts,My Town,150,150,0,0
608,197841600,Joskim,My Town,150,150,0,0
609,197836260,Piglio,My Town,150,150,0,0
610,197828420,OOhgiberry,OOhgiberry,150,150,0,0
611,197820970,AgueJIa,My Town,150,150,0,0
612,197085125,Bogsoon,My Town,150,150,0,0
613,197037500,AerospaceApe,My Town,150,150,0,0
614,196924440,SUDHIR SPALL,SPALL,0,150,0,150
615,196876210,Socorrista WM | [GEM],My Town,150,150,0,0
616,196854560,Karina_gg,My Town,150,150,0,0
617,196271710,cookie.u,My Town,150,150,0,0
618,196080000,_Sh4d0w_,My Town,150,150,0,0
619,195936290,Liverpool69,My Town,150,150,0,0
620,195915860,dorothy75,My Town,150,150,0,0
621,195332050,SheikhAurum,My Town,150,150,0,0
622,195162480,djtom85,am1 [DUB],150,150,0,0
623,195014590,RVT,My Town,150,150,0,0
624,195000720,DeArvis,My Town,150,150,0,0
625,194995250,yêubếuuuu,My Town,150,150,0,0
626,194984080,Joop55,My Town,150,150,0,0
627,194970290,SIDJ_TV | NLO,My Town,150,150,0,0
628,194966020,Casian,My Town,150,150,0,0
629,194958400,Dicassia,My Town,150,150,0,0
630,194943080,Wtf69,My Town,150,150,0,0
631,194933610,Manjushri,My Town,150,150,0,0
632,194115220,otherdav,Otherdavtown,150,150,0,0
633,194055360,exdee21,My Town,150,150,0,0
634,194043900,Ulanbek,My Town,150,150,0,0
635,194030430,Apus55,My Town,150,150,0,0
636,194015120,RedBuII,My Town,150,150,0,0
637,193986640,Tiago_Freitas,My Town,150,150,0,0
638,193977240,Lee_doesnt[GEM],My Town,150,150,0,0
639,193182340,MartSie[DUB],MartSie [DUB],150,150,0,0
640,193080130,Ant1,My Town,112,150,0,38
641,193052550,Taiga S l DUB,My Town,150,150,0,0
642,193036140,Rev0k,My Town,150,150,0,0
643,193027530,3v3nt | NLO,My Town,0,150,0,150
644,192150250,JUDEE44,BUDDYVILLE,150,150,0,0
645,192136070,PadmAndroid,My Town,150,150,0,0
646,192111980,Gamer.37,My Town,150,150,0,0
647,192107620,Sparkle [GEM],My Town,150,150,0,0
648,192102290,Sykkuno,My Town,150,150,0,0
649,192066400,Kraks,Kraks,150,150,0,0
650,191375480,Dhaka001,My Town,150,150,0,0
651,191194100,thuy minh,My Town,150,150,0,0
652,191128080,PuziO,My Town,150,150,0,0
653,190354070,Mastermirror,My Town,150,150,0,0
654,190227780,Klim6,My Town,150,150,0,0
655,190205080,taylon,My Town,150,150,0,0
656,190194610,DreamerLynne,My Town,150,150,0,0
657,190177900,edibaku,My Town,150,150,0,0
658,190165270,alisblog,My Town,150,150,0,0
659,190157730,tebb,My Town,150,150,0,0
660,190131820,sandr95,My Town,150,150,0,0
661,190126720,Noeyeiei,My Town,150,150,0,0
662,190060800,Smelly_Melly,My Town,150,150,0,0
663,189937140,Theseas,My Town,150,150,0,0
664,189272950,cichy48,My Town,150,150,0,0
665,189235170,Ancient Giant ,My Town,150,150,0,0
666,189219100,TimTimKiller,My Town,150,150,0,0
667,189209710,joo66,My Town,150,150,0,0
668,189204210,nsepehrn,My Town,150,150,0,0
669,189191740,kostet171,My Town,150,150,0,0
670,189179510,Nikita-Nikita,My Town,150,150,0,0
671,189177840,Papayrus,My Town,150,150,0,0
672,189163490,kukula,My Town,150,150,0,0
673,188311620,NeonSPB,My Town,150,150,0,0
674,188284610,LkFran,My Town,150,150,0,0
675,188276050,Genagarm2023,My Town,150,150,0,0
676,188269040,Glitchproject,My Town,150,150,0,0
677,188266310,Rhymastic,My Town,150,150,0,0
678,188249950,Gasai,Witcher,150,150,0,0
679,188227800,BentoAndMeg,My Town,150,150,0,0
680,188226190,Orange Banana,My Town,150,150,0,0
681,188093120,Phentoma,My Town,150,150,0,0
682,188061450,monthlyrEd,My Town,150,150,0,0
683,187424780,Pay to WIN,Pay to Win,150,150,0,0
684,187344010,djin666,My Town,150,150,0,0
685,187311690,Janeeg,My Town,150,150,0,0
686,187296500,[Solo Leveling] Ranker,Carpe Diem,150,150,0,0
687,187270710,FranciscoLopes,FranciscoLopes,150,150,0,0
688,187070920,Just4Funnier,My Town,150,150,0,0
689,186986860,saeed farno,My Town,150,150,0,0
690,186654720,DUDRON,My Town,150,150,0,0
691,186466070,Bolthar,My Town,150,150,0,0
692,186382290,OffGridRancher[GEM],OffGridRancher[GEM],150,150,0,0
693,186338510,bockemeh,My Town,150,150,0,0
694,186309800,BROB_82,B_ROB_82,150,150,0,0
695,186256280,cnajohn,My Town,150,150,0,0
696,186059750,boyz01_avenue,My Town,150,150,0,0
697,185691560,HarryTribe,HarryT,150,150,0,0
698,185520600,tsuaurym,My Town,150,150,0,0
699,185438700,RichV7 | LWG,My Town,150,150,0,0
700,185360470,WilliamA (POF),My Town,150,150,0,0
701,185356950,Galaxian#90418414,POOPGA[GEM],150,150,0,0
702,185294520,yukuzamaji,My Town,150,150,0,0
703,185175830,serovservic,My Town,150,150,0,0
704,184800080,Twilight Forger,My Town,150,150,0,0
705,184701030,Hemeltietjes,My Town,150,150,0,0
706,184460440,AnNAmindependent,My Town,150,150,0,0
707,184457500,rusoluiz,My Town,150,150,0,0
708,184444490,Kelorgk,My Town,150,150,0,0
709,184428970,TwitchDarkzera,My Town,150,150,0,0
710,184421530,StarFest28,My Town,150,150,0,0
711,184410670,felipee,My Town,150,150,0,0
712,183544520,sared2x,My Town,150,150,0,0
713,183436710,Galaxian#21421407,My Town,150,150,0,0
714,183082140,Matta,My Town,150,150,0,0
715,183065760,Pete.Dell99,My Town,150,150,0,0
716,182609440,[MOB] Pixel Mouse,[MOB]PixelMouse,150,150,0,0
717,182600030,GoldenGStar,My Town,150,150,0,0
718,182562840,Fudo1,My Town,50,150,0,100
719,182524170,Sergio Qu | NLO,My Town,150,150,0,0
720,182519860,Miraven,My Town,150,150,0,0
721,182518860,Krailus,My Town,150,150,0,0
722,182515960,darlingggg,My Town,150,150,0,0
723,182513440,Wingman,My Town,150,150,0,0
724,182505240,TiTo Gamer,My Town,150,150,0,0
725,182502385,Lego Maracas,LegoMaracas,150,150,0,0
726,182489060,gta6six,My Town,150,150,0,0
727,182477140,TeslaSim,My Town,150,150,0,0
728,182473270,xTupeTe,xTup3Te,150,150,0,0
729,182463320,Garyp (POF),My Town,150,150,0,0
730,182447270,Galaxian#82829143,My Town,150,150,0,0
731,182415260,ToroJiang,My Town,150,150,0,0
732,182414560,NETHIGHMAN,My Town,150,150,0,0
733,182137550,Vronkanon,My Town,150,150,0,0
734,182128480,Rch_no,My Town,150,150,0,0
735,181701430,IanLopez,My Town,150,150,0,0
736,181586940,MAFIA [DUB],My Town,150,150,0,0
737,181577810,BkWall,My Town,150,150,0,0
738,181559190,rexzada,My Town,150,150,0,0
739,181538310,KennytheF,My Town,150,150,0,0
740,181533770,Ardafa_Inzaghi,My Town,150,150,0,0
741,181515280,Galaxian#01720033,YUOGA[GEM],150,150,0,0
742,180615620,SAPER,My Town,150,150,0,0
743,180578200,WS_Kei,My Town,150,150,0,0
744,180561930,Nikolaikov,My Town,150,150,0,0
745,180558160,Lanashas (POF),My Town,150,150,0,0
746,180555260, Sara(POF),My Town,150,150,0,0
747,180542120,Galaxian#07612948,My Town,150,150,0,0
748,180535230,Taotarac (POF),My Town,150,150,0,0
749,180210500,AlphaPo,My Town,150,150,0,0
750,179689090,Beef_Biltong,Masala_Steak,150,150,0,0
751,179672900,Norbertlajos,My Town,150,150,0,0
752,179670960,9CJ,My Town,150,150,0,0
753,179639530,Samuelnb,My Town,150,150,0,0
754,179587380,wanderlusteexplorer,My Town,150,150,0,0
755,179580670,Zhashaza (POF),My Town,150,150,0,0
756,179577000,Galaxian#26487776,My Town,150,150,0,0
757,179528660,BALAbala,My Town,150,150,0,0
758,179064980,TofuAU,My Town,150,150,0,0
759,178770330,Fingers,My Town,150,150,0,0
760,178751430,donfranco,My Town,150,150,0,0
761,178723980,kingjon300 [GEM],My Town,150,150,0,0
762,178721910,JohnTheDon,My Town,150,150,0,0
763,178703910,Sofie Marco,My Town,150,150,0,0
764,178693370,Vuazxa,My Town,150,150,0,0
765,178691500,Xadeylin,My Town,150,150,0,0
766,178686310,Rheint,My Town,150,150,0,0
767,178668060,FindingNameMo,My Town,150,150,0,0
768,178649170,BimerBoy,My Town,150,150,0,0
769,178645450,VIKING[DUB],VIKING [DUB],150,150,0,0
770,178645010,sparkle_star_32,My Town,150,150,0,0
771,178634460,Ethan (POF),My Town,150,150,0,0
772,178634050,Ivanuch,My Town,150,150,0,0
773,178619930,Shava (POF),My Town,150,150,0,0
774,178568590,westman,My Town,150,150,0,0
775,178067900,Holghale,My Town,150,150,0,0
776,178028460,Superian,My Town,50,150,0,100
777,177754800,Wirach,My Town,150,150,0,0
778,177702150,Eve | VRS,Eve,150,150,0,0
779,177680300,Nenus (POF),My Town,150,150,0,0
780,177672490,Galaxian#17570282,ACEGA[GEM],150,150,0,0
781,177659360,sportsffanatic87,My Town,150,150,0,0
782,177655870,Sorai (POF),My Town,150,150,0,0
783,177652700,TimonPumb,My Town,150,150,0,0
784,177650840,Galaxian#90248963,My Town,150,150,0,0
785,176844720,Hakis,Hakis [DUB],100,150,0,50
786,176807240,3picNam3,3picNam3,150,150,0,0
787,176804220,vgxreflexz,My Town,150,150,0,0
788,176773470,Kemalep,My Town,150,150,0,0
789,176765250,coringaonf,My Town,150,150,0,0
790,176751120,DragonPrince,Domekano,150,150,0,0
791,176715940,RadioHat,My Town,150,150,0,0
792,176704700,Galaxian#89095011,My Town,150,150,0,0
793,176701030,Galaxian#71961748,My Town,150,150,0,0
794,176699650,Belatri (POF),My Town,150,150,0,0
795,176141630,Salma*,My Town,150,150,0,0
796,175932730,Kringseskhan [GEM],My Town,150,150,0,0
797,175797300,Blackard,My Town,150,150,0,0
798,175790180,Firebloom,My Town,150,150,0,0
799,175785150,Lagolda,My Town,150,150,0,0
800,175783790,ismaelsam,My Town,150,150,0,0
801,175775890,mmsushi,My Town,150,150,0,0
802,175762510,neo_wanderer_12,My Town,150,150,0,0
803,175762430,RadarZin,My Town,150,150,0,0
804,175359605,541F007,My Town,150,150,0,0
805,175105370,Dendaday NTM,My Town,150,150,0,0
806,174877580,meowsalot,My Town,150,150,0,0
807,174854500,iShad,My Town,150,150,0,0
808,174852640,Seakernel,Seakernel,150,150,0,0
809,174820150,MISHKUR 99 gg,My Town,150,150,0,0
810,174810220,Tomcat313,My Town,150,150,0,0
811,174785570,Galaxian#84888947,My Town,150,150,0,0
812,174780380,Meolvazh (POF),My Town,150,150,0,0
813,174554970,Sayto71,My Town,150,150,0,0
814,174046740,Heskin,My Town,150,150,0,0
815,174017580,CookieMonster,Area 51,150,150,0,0
816,173976660,Chopstix,My Town,150,150,0,0
817,173967700,LuckyDog,My Town,150,150,0,0
818,173941800,Kaitooo,My Town,150,150,0,0
819,173884750,pricey01,My Town,150,150,0,0
820,173880480,VAFatRabbit,My Town,150,150,0,0
821,173828730,AdventuresEeker,My Town,150,150,0,0
822,173827350,DisneyGrinder,My Town,150,150,0,0
823,173821410,Platon_gg,My Town,150,150,0,0
824,173817850,Galaxian#63797807,My Town,150,150,0,0
825,173077600,NeevAlena,My Town,150,150,0,0
826,173075210,Geresel,Geresel,150,150,0,0
827,172977580,Kenjoots │ NTM,My Town,150,150,0,0
828,172951440,AKM2014,My Town,150,150,0,0
829,172920200,Galaxian#40572324,My Town,150,150,0,0
830,172887800,cosmic_traveler_2023,My Town,150,150,0,0
831,172868890,Veuschaz (POF),My Town,150,150,0,0
832,172866000,Galaxian#90590462,My Town,150,150,0,0
833,172010550,TheLordPayne,LordTown[GEM],150,150,0,0
834,171966420,vasilevich87,My Town,150,150,0,0
835,171960460,Darkjudge,My Town,150,150,0,0
836,171959270,Sinola,My Town,150,150,0,0
837,171935750,Lyccos,My Town,150,150,0,0
838,171933290,angel223,My Town,150,150,0,0
839,171925950,Electric_Scribe_8,My Town,150,150,0,0
840,171910670,rash99,My Town,150,150,0,0
841,171885640,Alex Pavlov,My Town,150,150,0,0
842,171088825,BICOLANA.eth,My Town,150,150,0,0
843,171035160,ManHerbarium,My Town,150,150,0,0
844,171010510,Mavk,My Town,0,150,0,150
845,171000990,GoldenDarknes,Dope,150,150,0,0
846,170991440,Galaxian#02075034,My Town,150,150,0,0
847,170986330,Kodey Mat,My Town,150,150,0,0
848,170971470,lunaiori,My Town,150,150,0,0
849,170961270,Ayhan81,My Town,150,150,0,0
850,170960640,Crystal_Clear_23,My Town,150,150,0,0
851,170959650,Original pringle,My Town,150,150,0,0
852,170932820,Galaxian#70753277,My Town,150,150,0,0
853,170258710,Khalid Khalifa,My Town,150,150,0,0
854,170196510,KaKaTrieu68,My Town,150,150,0,0
855,170093730,Volrem,My Town,150,150,0,0
856,170084900,KarlZed,My Town,150,150,0,0
857,170048850,Galaxian#86968342,My Town,150,150,0,0
858,170048170,TheWorldz,My Town,150,150,0,0
859,170047940,Evonasia,My Town,150,150,0,0
860,170038340,Alexxtrasza,My Town,150,150,0,0
861,170028885,サービス,My Town,150,150,0,0
862,170023870,JoeButcher,My Town,150,150,0,0
863,169985600,Kekey,Kekey,150,150,0,0
864,169229040,possum,My Town,150,150,0,0
865,169204750,twoS,My Town,150,150,0,0
866,169194910,ovs555,My Town,150,150,0,0
867,169147780,Caveira25,My Town,150,150,0,0
868,169131860,Goku [GEM],My Town,150,150,0,0
869,169116430,kAosfull,My Town,150,150,0,0
870,169087010,Drew M,My Town,150,150,0,0
871,169080290,harobalor,My Town,150,150,0,0
872,169077840,Thomas1989,My Town,150,150,0,0
873,169074970,Wolf Town | DUB,My Town,150,150,0,0
874,169071180,Rosevulpes [GEM],My Town,150,150,0,0
875,169067200,StudenT,My Town,150,150,0,0
876,169061640,Agi62,My Town,150,150,0,0
877,169058980,Konishi,KonishiLand [GEM],150,150,0,0
878,169049300,Sliferus,My Town,150,150,0,0
879,169032930,Koapayurs (POF),My Town,150,150,0,0
880,169027530,Galaxian#76703392,My Town,150,150,0,0
881,168996920,kediana,My Town,150,150,0,0
882,168531860,charlestron,CharlesTron,150,150,0,0
883,168193280,TheM [GEM],TheM [GEM],150,150,0,0
884,168178260,kathi1991,My Town,150,150,0,0
885,168162800,Alpha | NLO,My Town,150,150,0,0
886,168133950,VendrethUK [GEM],VendrethUK [GEM],150,150,0,0
887,168119580,Bedabrih,Bedabrih,150,150,0,0
888,168112120,Miranjo,My Town,150,150,0,0
889,168111040,Darpadil,My Town,150,150,0,0
890,168104940,Makao,My Town,150,150,0,0
891,168094090,Spheroidling,My Town,150,150,0,0
892,168088400,Leaf[GEM],My Town,150,150,0,0
893,168070560,Galaxian#21163194,My Town,150,150,0,0
894,168068920,Zasashpo (POF),My Town,150,150,0,0
895,168067970,Stormzzin,My Town,150,150,0,0
896,167279600,pat_q,My Town,150,150,0,0
897,167216150,guipadua01,My Town,150,150,0,0
898,167195730,Shagathal [GEM],Humbleville [GEM],150,150,0,0
899,167165980,Satoshi_Nakamoto,My Town,150,150,0,0
900,167132230,Indigo | VRS,Indigo,150,150,0,0
901,167121170,Galaxian#00131490,MINAG[GEM],100,100,0,0
902,167118690,Galaxian#67686158,My Town,100,100,0,0
903,167088850,RoseKata,My Town,100,100,0,0
904,166233860,Voronezh,My Town,100,100,0,0
905,166228100,Keenyousook,My Town,100,100,0,0
906,166213600,MaverickV8,My Town,100,100,0,0
907,166202910,ogbevireo,PinkDiamonds,100,100,0,0
908,166173380,EzraWalt (POF),My Town,100,100,0,0
909,166156220,abbyazovt ,My Town,100,100,0,0
910,166154720,Galaxian#28178163,My Town,100,100,0,0
911,166142350,Seemsyur (POF),My Town,100,100,0,0
912,166126080,KNN [GEM],My Town,100,100,0,0
913,166054400,Ardron,My Town,100,100,0,0
914,165411010,Luvena [GEM],Luvena [GEM],50,100,0,50
915,165321440,Barretu,My Town,100,100,0,0
916,165306910,Antonio Silva,GangGangGang,100,100,0,0
917,165272130,greylorn,My Town,100,100,0,0
918,165258250,Mouser,My Town,100,100,0,0
919,165243320,Abel Madoline,My Town,100,100,0,0
920,165241270,HeimerDinger,My Town,100,100,0,0
921,165207240,Herero,My Town,100,100,0,0
922,165184090,Dianait (POF),My Town,100,100,0,0
923,165175640,orhu,My Town,100,100,0,0
924,165170000,Galaxian#43556083,My Town,100,100,0,0
925,164887000,TyroneBanks,My Town,100,100,0,0
926,164772700,KevinNord,Kevinnnn,100,100,0,0
927,164426660,ทองย้อย,My Town,100,100,0,0
928,164366900,Neokills,My Town,100,100,0,0
929,164291950,Winning,My Town,100,100,0,0
930,164272930,AdrianZ,XMC,100,100,0,0
931,164262360,jiefangzj,My Town,100,100,0,0
932,164261290,muera,My Town,100,100,0,0
933,164257940,Galaxian#72326698,koae[GEM],100,100,0,0
934,164250920,Bonzas,My Town,100,100,0,0
935,164233320,Spaghetti | NLO,My Town,100,100,0,0
936,164218570,kto_ya_gg,My Town,100,100,0,0
937,164081790,Devimillo,My Town,100,100,0,0
938,163527750,Genlean HVN,My Town,100,100,0,0
939,163453800,Stasego,My Town,100,100,0,0
940,163448230,00100100,My Town,100,100,0,0
941,163445320,Gatsu [GEM],My Town,100,100,0,0
942,163420260,Ambaland,My Town,100,100,0,0
943,163349400,notLeo †TSM† ,My Town,100,100,0,0
944,163348420,9230706,My Town,100,100,0,0
945,163321190,sqltracker,My Town,100,100,0,0
946,163300290,Artiik,My Town,100,100,0,0
947,163296820,KannaNupe,My Town,100,100,0,0
948,163290040,Wchoa,My Town,100,100,0,0
949,163274400,Galaxian#75712852,My Town,100,100,0,0
950,163266730,tteecheek123,My Town,100,100,0,0
951,163111340,MrVictor,My Town,100,100,0,0
952,163073430,redhammer,My Town,100,100,0,0
953,162393070,elizag,My Town,100,100,0,0
954,162391295,green chucky,My Town,100,100,0,0
955,162361820,Galaxian#44145386,My Town,100,100,0,0
956,162340130,Star_Gazer_923,My Town,100,100,0,0
957,162323620,MADMYTAHT,My Town,100,100,0,0
958,162320440,Scooby300,My Town,100,100,0,0
959,161552920,inTimeZ | GEM,My Town,100,100,0,0
960,161411710,victor45,My Town,100,100,0,0
961,161407460,PatrickGrab,My Town,100,100,0,0
962,161407040,Jenny2day,My Town,100,100,0,0
963,161394810,BCHFTM,Riverwood,100,100,0,0
964,161373640,Ivan4ik228,My Town,100,100,0,0
965,161371420,Nekiit,My Town,100,100,0,0
966,161358010,RuSalva,NLO,100,100,0,0
967,161127660,Davilson2004,My Town,100,100,0,0
968,160624570,Ryl.D,My Town,100,100,0,0
969,160498550,GenaB,My Town,0,100,0,100
970,160496540,Cini,CiniVille,100,100,0,0
971,160477540,lSheriffl,My Town,100,100,0,0
972,160448010,Kyunix [GEM],My Town,100,100,0,0
973,160443410,Galaxian#58573704,My Town,100,100,0,0
974,160436370,Galaxian#28489584,My Town,100,100,0,0
975,160429460,Dr.Scoops,My Town,100,100,0,0
976,160421930,calienalen,My Town,100,100,0,0
977,160420870,QiaLONGF,My Town,100,100,0,0
978,160410190,quantum_leap_55,My Town,100,100,0,0
979,160396000,Galaxian#46818520,My Town,100,100,0,0
980,160377940,barbaramitchell ,My Town,100,100,0,0
981,160083105,Druifje [GEM],My Town,100,100,0,0
982,159580070,JeffsTV,My Town,100,100,0,0
983,159511850,GemT,My Town,100,100,0,0
984,159503360,cryptoplayer,Cryptoplayer,100,100,0,0
985,159468780,Galaxian#22552325,My Town,100,100,0,0
986,159461800,Vanzer,My Town,100,100,0,0
987,159445390,Tifanitos,My Town,100,100,0,0
988,159139640,WarnMe,My Town,100,100,0,0
989,158973300,oDoug,My Town,100,100,0,0
990,158664130,maryng,My Town,100,100,0,0
991,158607620,JeFFyNuM,JeFFyNuM,0,100,0,100
992,158601180,hellofriends,My Town,100,100,0,0
993,158580890,ClerisNM,My Town,100,100,0,0
994,158556640,Uncle Scott,My Town,100,100,0,0
995,158543750,Meow | CAT,Meow_CAT | LWG,100,100,0,0
996,158540220,Badai,My Town,100,100,0,0
997,158524100,Dalrend,My Town,100,100,0,0
998,158523820,CoachBeard,My Town,100,100,0,0
999,158506700,Vesh,My Town,100,100,0,0
1000,158494420,Eunisc,My Town,100,100,0,0
1001,158494190,LBFoof,My Town,100,100,0,0
1002,158490030,Sorini[GEM],My Town,100,100,0,0
1003,158484380,JmJ,JomIce,100,100,0,0
1004,158048050,Kir Paal,My Town,100,100,0,0
1005,158024270,Smax,My Town,100,100,0,0
1006,157689190,Cryptoholic$ [GEM],My Town,100,100,0,0
1007,157613330,Binisen,My Town,100,100,0,0
1008,157554020,CheKogo,My Town,100,100,0,0
1009,157548040,LyNIMAA,My Town,100,100,0,0
1010,157523630,lilita,My Town,100,100,0,0
1011,157471050,Banan4ikMan,My Town,100,100,0,0
1012,157140150,Zabrodil,Zabrodil,100,100,0,0
1013,157109440,HappyT,My Town,100,100,0,0
1014,157070250,Whatevs | BTB,My Town,100,100,0,0
1015,156968050,MissisBublik,My Town,100,100,0,0
1016,156702660,judson,My Town,100,100,0,0
1017,156652500,wallie,My Town,100,100,0,0
1018,156635940,AceHarth,My Town,100,100,0,0
1019,156629580,OldSchoolGamer01,My Town,100,100,0,0
1020,156599620,Gvenombr,My Town,100,100,0,0
1021,156584990,isaques,My Town,100,100,0,0
1022,156566320,Galaxian#78889062,My Town,100,100,0,0
1023,156557750,E-ManCP8,My Town,100,100,0,0
1024,156533670,Galaxian#71505710,My Town,100,100,0,0
1025,156276190,0ttakrieger,My Town,100,100,0,0
1026,156174970,SunJian206,My Town,100,100,0,0
1027,156144630,Nils2d2,My Town,0,100,0,100
1028,156037910,Meximus,My Town,100,100,0,0
1029,155780210,Nas27,My Town,0,100,0,100
1030,155710170,gafik,My Town,100,100,0,0
1031,155679210,Spark#8411,My Town,12,100,0,88
1032,155654740,Judged,My Town,100,100,0,0
1033,155640680,Rainman666,My Town,0,100,0,100
1034,155638070,hannako,My Town,100,100,0,0
1035,155629970,Stas9901,My Town,100,100,0,0
1036,155624340,Little Daisy,Little Wheels,0,100,0,100
1037,155606350,kopirax,My Town,100,100,0,0
1038,155591470,Jaysoriz,JaySorz,100,100,0,0
1039,155108930,A.L.F.,My Town,100,100,0,0
1040,154825910,Sytoshii,My Town,100,100,0,0
1041,154619520,Galaxian#73492388,My Town,100,100,0,0
1042,154385470,Dreaam,My Town,100,100,0,0
1043,154285760,Mizzamir [GEM],My Town,100,100,0,0
1044,154074950,NKR_Napt[GEM],My Town,100,100,0,0
1045,154040530,Gitikuno,My Town,100,100,0,0
1046,153900840,CryptoDawg,My Town,100,100,0,0
1047,153809480,Nomadic_Sean,My Town,100,100,0,0
1048,153752790,Sakhawat,My Town,100,100,0,0
1049,153745740,TheBuilder,My Town,100,100,0,0
1050,153734870,debiloid,Saransk,100,100,0,0
1051,153732280,playblock03,My Town,100,100,0,0
1052,153707740,SingASong,My Town,100,100,0,0
1053,153695930,Spot Jones [GEM],My Town,100,100,0,0
1054,153693170,Night-Wolf,My Town,100,100,0,0
1055,153689710,Galaxian#89010740,My Town,100,100,0,0
1056,153684550,Zeros911,My Town,100,100,0,0
1057,153683460,Chaien (POF),My Town,100,100,0,0
1058,153680700,aree444 [GEM],My Town,100,100,0,0
1059,153676640,GorillaBlue,My Town,100,100,0,0
1060,153669440,GefestT,My Town,100,100,0,0
1061,153663810,Ankares,My Town,0,100,0,100
1062,153661000,linda36,My Town,100,100,0,0
1063,153076860,+lon,My Town,100,100,0,0
1064,152806430,Pickle_rick,pickle,100,100,0,0
1065,152771530,MW911,MW911,100,100,0,0
1066,152765220,Galaxian#63914036,My Town,100,100,0,0
1067,152753240,AlexWeb3,My Town,100,100,0,0
1068,152739520,Galaxian#69087947,TYAEG[GEM],100,100,0,0
1069,152700480,Beniez,My Town,100,100,0,0
1070,152695420,Galaxian#08571683,My Town,100,100,0,0
1071,152689940,HaHaHa,My Town,100,100,0,0
1072,152645025,Devilena Futura,My Town,100,100,0,0
1073,152170530,NotthatPaulSmith,My Town,100,100,0,0
1074,151909090,Galaxian#80473749,My Town,100,100,0,0
1075,151808660,Ehdghel,My Town,100,100,0,0
1076,151771130,younloth,My Town,100,100,0,0
1077,151771090,Azizi Novie,My Town,100,100,0,0
1078,151751870,bookwormwwriter1,My Town,100,100,0,0
1079,151744010,Galaxian#44423629,My Town,100,100,0,0
1080,151732245,dreamgame,Dreamgame,100,100,0,0
1081,150948890,willis,My Town,100,100,0,0
1082,150875090,valyna,My Town,100,100,0,0
1083,150866860,SartyThe1,My Town,100,100,0,0
1084,150861920,Nisabaiq,My Town,100,100,0,0
1085,150828160,nyhhd,My Town,100,100,0,0
1086,150802810,Press F,My Town,100,100,0,0
1087,150799920,SKAM123,My Town,100,100,0,0
1088,150785290,Galaxian#33936128,My Town,100,100,0,0
1089,150785130,Galaxian#70991456,My Town,100,100,0,0
1090,150240890,Galanodel,My Town,100,100,0,0
1091,150127240,Blunder,Blunder Ville,100,100,0,0
1092,150099360,inexile,My Town,100,100,0,0
1093,149942370,Krabs | BB,Krabs | BB,100,100,0,0
1094,149928800,ETC [GEM],My Town,100,100,0,0
1095,149908310,Peariee,My Town,100,100,0,0
1096,149882880,2.5TDS,My Town,100,100,0,0
1097,149872270,rrr_ren,My Town,100,100,0,0
1098,149836780,SuperBeetNagibatorFoont3000,My Town,100,100,0,0
1099,149833590,immortally,My Town,100,100,0,0
1100,149810650,MariaEunice,MariaEunice,100,100,0,0
1101,149086680,Phonpawee,My Town,100,100,0,0
1102,149010560,Knull369,My Town,100,100,0,0
1103,148970260,Okolol,My Town,100,100,0,0
1104,148941830,Venicio,My Town,100,100,0,0
1105,148905960,Sunny Town,My Town,0,100,0,100
1106,148902580,Ander_TS,My Town,100,100,0,0
1107,148867420,Galaxian#93679645,My Town,100,100,0,0
1108,148101060,CryptoFrog | HVN,My Town,100,100,0,0
1109,147982010,mihasya_9,My Town,100,100,0,0
1110,147937080,siaon,My Town,100,100,0,0
1111,147927990,princenuri,My Town,0,100,0,100
1112,147920480,Katya Spider,My Town,100,100,0,0
1113,147902430,Bevoi (POF),My Town,100,100,0,0
1114,147894360,Chopaigs (POF),My Town,100,100,0,0
1115,147291660,Ganjar16,One Piece,100,100,0,0
1116,147065900,merragued,My Town,100,100,0,0
1117,146999690,emptyBags,crimeaRiver,100,100,0,0
1118,146994310,Idugvelci,My Town,100,100,0,0
1119,146962070,Galaxian#93832002,My Town,100,100,0,0
1120,146957100,ez_for_me,My Town,100,100,0,0
1121,146945130,Galaxian#78346231,My Town,100,100,0,0
1122,146936590,xanderas,My Town,100,100,0,0
1123,146933110,carolevan,My Town,100,100,0,0
1124,146234860,Icebums,My Town,100,100,0,0
1125,146203030,irenate,irenate,100,100,0,0
1126,146104660,AGJPAREE/NAKA,My Town,100,100,0,0
1127,146086240,DINO79,My Town,0,100,0,100
1128,146076530,Lucano,My Town,100,100,0,0
1129,146048090,Jarif Mahdi,My Town,100,100,0,0
1130,146012160,Nagigmi (POF),My Town,100,100,0,0
1131,145152270,flayus,My Town,100,100,0,0
1132,145141810,Amplerich,AR Town,100,100,0,0
1133,145116040,kkaren,My Town,100,100,0,0
1134,145092440,Eve Deb,My Town,100,100,0,0
1135,145051920,Dark goose,My Town,100,100,0,0
1136,145042700,Yahuuuuuuu,My Town,100,100,0,0
1137,145035300,musiclLover-2111,My Town,100,100,0,0
1138,144958390,오드리,ybujin0105,100,100,0,0
1139,144265180,Gangbusta YT,My Town,100,100,0,0
1140,144192370,Chris8080,My Town,100,100,0,0
1141,144186520,Almond Candy,My Town,0,100,0,100
1142,144182600,Sapphreya,My Town,100,100,0,0
1143,144170680,Doihef,My Town,100,100,0,0
1144,144153540,Luwna,My Town,100,100,0,0
1145,144118320,Eyrinn,My Town,100,100,0,0
1146,144115710,ZhuangXH,My Town,100,100,0,0
1147,144110240,ジョンストン,My Town,100,100,0,0
1148,144104080,haz83,My Town,100,100,0,0
1149,144040330,Xutu,My Town,100,100,0,0
1150,143256510,perlinfein,My Town,100,100,0,0
1151,143211150,Colonian,My Town,100,100,0,0
1152,142948430,Jeffe Sailor,My Town,100,100,0,0
1153,142367270,Derpy Kirby,Kirks,100,100,0,0
1154,142206070,Ucan Depik [GEM],My Town,100,100,0,0
1155,142192100,Ellit#2211441141,My Town,100,100,0,0
1156,142159090,Nakamuro,My Town,100,100,0,0
1157,142156530,Galaxian#19637447,My Town,100,100,0,0
1158,142143030,Galaxian#20057239,My Town,100,100,0,0
1159,141431140,[GEM] ibins,My Town,100,100,0,0
1160,141308400,EvoLveN99,My Town,100,100,0,0
1161,141280850,dawei414 [GEM],dawei414 [GEM],100,100,0,0
1162,141252230,Wildmoon,My Town,100,100,0,0
1163,141213940,Galaxian#33708584,My Town,100,100,0,0
1164,141197160,Helena Tamela,My Town,100,100,0,0
1165,140958730,SemediPu,semediPu | Ina,100,100,0,0
1166,140837780,bitc7180 [GEM],bitc123 [GEM],100,100,0,0
1167,140386120,Chunkie723,My Town,100,100,0,0
1168,140377540,Ron Ranger,My Town,87,100,0,13
1169,140298230,Kshreeem,My Town,100,100,0,0
1170,140289790,dwar,My Town,100,100,0,0
1171,140287450,Gasanpif (POF),My Town,100,100,0,0
1172,140285990,Jerome_GG,My Town,100,100,0,0
1173,140280070,Emocore,My Town,100,100,0,0
1174,140278650,foodieadventurer234,My Town,100,100,0,0
1175,140262320,Xinjidong,My Town,100,100,0,0
1176,140244880,Russith81,My Town,100,100,0,0
1177,140237320,Weedpromoe,My Town,100,100,0,0
1178,140070770,Gualex,My Town,0,100,0,100
1179,139923260,Blossom Town,Blossom Town,100,100,0,0
1180,139690510,Son_Dula,My Town,100,100,0,0
1181,139397930,Luna | CAC,My Town,100,100,0,0
1182,139367790,GGDexter,My Town,100,100,0,0
1183,139364310,Gamafernando,My Town,100,100,0,0
1184,139339860,hieyjean,My Town,100,100,0,0
1185,139312230,Galaxian#58985034,My Town,100,100,0,0
1186,139303240,FIxiang,My Town,100,100,0,0
1187,139303180,Galaxian#94823153,My Town,100,100,0,0
1188,139290550,Galaxian#12207205,My Town,100,100,0,0
1189,139275190,Alexmagno,ALexMagno,100,100,0,0
1190,139262930,JohnnyCEHN[GEM],My Town,100,100,0,0
1191,139080535,everturn [GEM],My Town,100,100,0,0
1192,138791370,Galaxian#13,My Town,100,100,0,0
1193,138483040,Maulx,My Town,100,100,0,0
1194,138380110,Ascaris01,My Town,100,100,0,0
1195,138374420,Dorothy Willy,My Town,100,100,0,0
1196,138367950,bibicuRO,My Town,100,100,0,0
1197,138343540,NiaYUV,My Town,100,100,0,0
1198,138339780,Galaxian#85988781,My Town,100,100,0,0
1199,138334760,fabiobinance,My Town,100,100,0,0
1200,138328780,Galaxian#49283082,My Town,100,100,0,0
